test_run_dir/DebounceFunc_should_debounce/DebounceFunc.vcd
$date
2026-01-09T09:38+0000
$end
$version
0.2
$end
$comment

$end
$timescale 1ns  $end
$scope module DebounceFunc $end
 $var wire 7 ! tick_reg $end
 $var wire 8 " io_led $end
 $var wire 1 # risingEdge_REG $end
 $var wire 3 $ btnClean_reg $end
 $var wire 1 % btnClean $end
 $var wire 1 & btnDeb $end
 $var wire 8 ' reg $end
 $var wire 1 ( btnSync $end
 $var wire 1 ) tick $end
 $var wire 1 * clock $end
 $var wire 1 + btnSync_REG $end
 $var wire 1 , io_btnU $end
 $var wire 1 - reset $end
 $var wire 1 . risingEdge $end
$upscope $end
$enddefinitions $end
$dumpvars
b00000000 '
b000 $
b00000000 "
0#
0%
0&
b0000000 !
0(
0)
0*
0+
0,
0-
0.
$end
#0
1-
#1
1*
#6
0*
0-
#11
b0000001 !
1*
#16
0*
#21
b0000010 !
1*
#26
0*
#31
b0000011 !
1*
#36
0*
#41
b0000100 !
1*
#46
0*
#51
b0000101 !
1*
#56
0*
#61
b0000110 !
1*
#66
0*
#71
b0000111 !
1*
#76
0*
#81
b0001000 !
1*
#86
0*
#91
b0001001 !
1*
#96
0*
#101
b0001010 !
1*
#106
0*
#111
b0001011 !
1*
#116
0*
#121
b0001100 !
1*
#126
0*
#131
b0001101 !
1*
#136
0*
#141
b0001110 !
1*
#146
0*
#151
b0001111 !
1*
#156
0*
#161
b0010000 !
1*
#166
0*
#171
b0010001 !
1*
#176
0*
#181
b0010010 !
1*
#186
0*
#191
b0010011 !
1*
#196
0*
#201
b0010100 !
1*
#206
0*
#211
b0010101 !
1*
#216
0*
#221
b0010110 !
1*
#226
0*
#231
b0010111 !
1*
#236
0*
#241
b0011000 !
1*
#246
0*
#251
b0011001 !
1*
#256
0*
#261
b0011010 !
1*
#266
0*
#271
b0011011 !
1*
#276
0*
#281
b0011100 !
1*
#286
0*
#291
b0011101 !
1*
#296
0*
#301
b0011110 !
1*
#306
0*
#311
b0011111 !
1*
#316
0*
#321
b0100000 !
1*
#326
0*
#331
b0100001 !
1*
#336
0*
#341
b0100010 !
1*
#346
0*
#351
b0100011 !
1*
#356
0*
#361
b0100100 !
1*
#366
0*
1,
#371
b0100101 !
1*
1+
#376
0*
#381
b0100110 !
1(
1*
#386
0*
#391
b0100111 !
1*
#396
0*
0,
#401
b0101000 !
1*
0+
#406
0*
#411
b0101001 !
0(
1*
#416
0*
#421
b0101010 !
1*
#426
0*
1,
#431
b0101011 !
1*
1+
#436
0*
#441
b0101100 !
1(
1*
#446
0*
#451
b0101101 !
1*
#456
0*
#461
b0101110 !
1*
#466
0*
#471
b0101111 !
1*
#476
0*
#481
b0110000 !
1*
#486
0*
#491
b0110001 !
1*
#496
0*
#501
b0110010 !
1*
#506
0*
#511
b0110011 !
1*
#516
0*
#521
b0110100 !
1*
#526
0*
#531
b0110101 !
1*
#536
0*
#541
b0110110 !
1*
#546
0*
#551
b0110111 !
1*
#556
0*
#561
b0111000 !
1*
#566
0*
#571
b0111001 !
1*
#576
0*
#581
b0111010 !
1*
#586
0*
#591
b0111011 !
1*
#596
0*
#601
b0111100 !
1*
#606
0*
#611
b0111101 !
1*
#616
0*
#621
b0111110 !
1*
#626
0*
#631
b0111111 !
1*
#636
0*
#641
b1000000 !
1*
#646
0*
#651
b1000001 !
1*
#656
0*
#661
b1000010 !
1*
#666
0*
#671
b1000011 !
1*
#676
0*
#681
b1000100 !
1*
#686
0*
#691
b1000101 !
1*
#696
0*
#701
b1000110 !
1*
#706
0*
#711
b1000111 !
1*
#716
0*
#721
b1001000 !
1*
#726
0*
#731
b1001001 !
1*
#736
0*
#741
b1001010 !
1*
#746
0*
#751
b1001011 !
1*
#756
0*
#761
b1001100 !
1*
#766
0*
#771
b1001101 !
1*
#776
0*
#781
b1001110 !
1*
#786
0*
#791
b1001111 !
1*
#796
0*
#801
b1010000 !
1*
#806
0*
#811
b1010001 !
1*
#816
0*
#821
b1010010 !
1*
#826
0*
#831
b1010011 !
1*
#836
0*
#841
b1010100 !
1*
#846
0*
#851
b1010101 !
1*
#856
0*
#861
b1010110 !
1*
#866
0*
#871
b1010111 !
1*
#876
0*
#881
b1011000 !
1*
#886
0*
#891
b1011001 !
1*
#896
0*
#901
b1011010 !
1*
#906
0*
#911
b1011011 !
1*
#916
0*
#921
b1011100 !
1*
#926
0*
#931
b1011101 !
1*
#936
0*
#941
b1011110 !
1*
#946
0*
#951
b1011111 !
1*
#956
0*
#961
b1100000 !
1*
#966
0*
#971
b1100001 !
1*
#976
0*
#981
b1100010 !
1*
#986
0*
#991
b1100011 !
1)
1*
#996
0*
#1001
b0000000 !
1&
0)
1*
#1006
0*
#1011
b0000001 !
1*
#1016
0*
#1021
b0000010 !
1*
#1026
0*
#1031
b0000011 !
1*
#1036
0*
#1041
b0000100 !
1*
#1046
0*
#1051
b0000101 !
1*
#1056
0*
#1061
b0000110 !
1*
#1066
0*
#1071
b0000111 !
1*
#1076
0*
#1081
b0001000 !
1*
#1086
0*
#1091
b0001001 !
1*
#1096
0*
#1101
b0001010 !
1*
#1106
0*
#1111
b0001011 !
1*
#1116
0*
#1121
b0001100 !
1*
#1126
0*
#1131
b0001101 !
1*
#1136
0*
#1141
b0001110 !
1*
#1146
0*
#1151
b0001111 !
1*
#1156
0*
#1161
b0010000 !
1*
#1166
0*
#1171
b0010001 !
1*
#1176
0*
#1181
b0010010 !
1*
#1186
0*
#1191
b0010011 !
1*
#1196
0*
#1201
b0010100 !
1*
#1206
0*
#1211
b0010101 !
1*
#1216
0*
#1221
b0010110 !
1*
#1226
0*
#1231
b0010111 !
1*
#1236
0*
#1241
b0011000 !
1*
#1246
0*
#1251
b0011001 !
1*
#1256
0*
#1261
b0011010 !
1*
#1266
0*
#1271
b0011011 !
1*
#1276
0*
#1281
b0011100 !
1*
#1286
0*
#1291
b0011101 !
1*
#1296
0*
#1301
b0011110 !
1*
#1306
0*
#1311
b0011111 !
1*
#1316
0*
#1321
b0100000 !
1*
#1326
0*
#1331
b0100001 !
1*
#1336
0*
#1341
b0100010 !
1*
#1346
0*
#1351
b0100011 !
1*
#1356
0*
#1361
b0100100 !
1*
#1366
0*
#1371
b0100101 !
1*
#1376
0*
#1381
b0100110 !
1*
#1386
0*
#1391
b0100111 !
1*
#1396
0*
#1401
b0101000 !
1*
#1406
0*
#1411
b0101001 !
1*
#1416
0*
#1421
b0101010 !
1*
#1426
0*
#1431
b0101011 !
1*
#1436
0*
#1441
b0101100 !
1*
#1446
0*
#1451
b0101101 !
1*
#1456
0*
#1461
b0101110 !
1*
#1466
0*
#1471
b0101111 !
1*
#1476
0*
#1481
b0110000 !
1*
#1486
0*
#1491
b0110001 !
1*
#1496
0*
#1501
b0110010 !
1*
#1506
0*
#1511
b0110011 !
1*
#1516
0*
#1521
b0110100 !
1*
#1526
0*
#1531
b0110101 !
1*
#1536
0*
#1541
b0110110 !
1*
#1546
0*
#1551
b0110111 !
1*
#1556
0*
#1561
b0111000 !
1*
#1566
0*
#1571
b0111001 !
1*
#1576
0*
#1581
b0111010 !
1*
#1586
0*
#1591
b0111011 !
1*
#1596
0*
#1601
b0111100 !
1*
#1606
0*
#1611
b0111101 !
1*
#1616
0*
#1621
b0111110 !
1*
#1626
0*
#1631
b0111111 !
1*
#1636
0*
#1641
b1000000 !
1*
#1646
0*
#1651
b1000001 !
1*
#1656
0*
#1661
b1000010 !
1*
#1666
0*
#1671
b1000011 !
1*
#1676
0*
#1681
b1000100 !
1*
#1686
0*
#1691
b1000101 !
1*
#1696
0*
#1701
b1000110 !
1*
#1706
0*
#1711
b1000111 !
1*
#1716
0*
#1721
b1001000 !
1*
#1726
0*
#1731
b1001001 !
1*
#1736
0*
#1741
b1001010 !
1*
#1746
0*
#1751
b1001011 !
1*
#1756
0*
#1761
b1001100 !
1*
#1766
0*
#1771
b1001101 !
1*
#1776
0*
#1781
b1001110 !
1*
#1786
0*
#1791
b1001111 !
1*
#1796
0*
#1801
b1010000 !
1*
#1806
0*
#1811
b1010001 !
1*
#1816
0*
#1821
b1010010 !
1*
#1826
0*
#1831
b1010011 !
1*
#1836
0*
#1841
b1010100 !
1*
#1846
0*
#1851
b1010101 !
1*
#1856
0*
#1861
b1010110 !
1*
#1866
0*
#1871
b1010111 !
1*
#1876
0*
#1881
b1011000 !
1*
#1886
0*
#1891
b1011001 !
1*
#1896
0*
#1901
b1011010 !
1*
#1906
0*
#1911
b1011011 !
1*
#1916
0*
#1921
b1011100 !
1*
#1926
0*
#1931
b1011101 !
1*
#1936
0*
#1941
b1011110 !
1*
#1946
0*
#1951
b1011111 !
1*
#1956
0*
#1961
b1100000 !
1*
#1966
0*
#1971
b1100001 !
1*
#1976
0*
#1981
b1100010 !
1*
#1986
0*
#1991
b1100011 !
1)
1*
#1996
0*
#2001
b0000000 !
b001 $
0)
1*
#2006
0*
#2011
b0000001 !
1*
#2016
0*
#2021
b0000010 !
1*
#2026
0*
#2031
b0000011 !
1*
#2036
0*
#2041
b0000100 !
1*
#2046
0*
#2051
b0000101 !
1*
#2056
0*
#2061
b0000110 !
1*
#2066
0*
#2071
b0000111 !
1*
#2076
0*
#2081
b0001000 !
1*
#2086
0*
#2091
b0001001 !
1*
#2096
0*
#2101
b0001010 !
1*
#2106
0*
#2111
b0001011 !
1*
#2116
0*
#2121
b0001100 !
1*
#2126
0*
#2131
b0001101 !
1*
#2136
0*
#2141
b0001110 !
1*
#2146
0*
#2151
b0001111 !
1*
#2156
0*
#2161
b0010000 !
1*
#2166
0*
#2171
b0010001 !
1*
#2176
0*
#2181
b0010010 !
1*
#2186
0*
#2191
b0010011 !
1*
#2196
0*
#2201
b0010100 !
1*
#2206
0*
#2211
b0010101 !
1*
#2216
0*
#2221
b0010110 !
1*
#2226
0*
#2231
b0010111 !
1*
#2236
0*
#2241
b0011000 !
1*
#2246
0*
#2251
b0011001 !
1*
#2256
0*
#2261
b0011010 !
1*
#2266
0*
#2271
b0011011 !
1*
#2276
0*
#2281
b0011100 !
1*
#2286
0*
#2291
b0011101 !
1*
#2296
0*
#2301
b0011110 !
1*
#2306
0*
#2311
b0011111 !
1*
#2316
0*
#2321
b0100000 !
1*
#2326
0*
#2331
b0100001 !
1*
#2336
0*
#2341
b0100010 !
1*
#2346
0*
#2351
b0100011 !
1*
#2356
0*
#2361
b0100100 !
1*
#2366
0*
#2371
b0100101 !
1*
#2376
0*
#2381
b0100110 !
1*
#2386
0*
#2391
b0100111 !
1*
#2396
0*
#2401
b0101000 !
1*
#2406
0*
#2411
b0101001 !
1*
#2416
0*
#2421
b0101010 !
1*
#2426
0*
#2431
b0101011 !
1*
#2436
0*
#2441
b0101100 !
1*
#2446
0*
#2451
b0101101 !
1*
#2456
0*
#2461
b0101110 !
1*
#2466
0*
#2471
b0101111 !
1*
#2476
0*
#2481
b0110000 !
1*
#2486
0*
#2491
b0110001 !
1*
#2496
0*
#2501
b0110010 !
1*
#2506
0*
#2511
b0110011 !
1*
#2516
0*
#2521
b0110100 !
1*
#2526
0*
#2531
b0110101 !
1*
#2536
0*
#2541
b0110110 !
1*
#2546
0*
#2551
b0110111 !
1*
#2556
0*
#2561
b0111000 !
1*
#2566
0*
#2571
b0111001 !
1*
#2576
0*
#2581
b0111010 !
1*
#2586
0*
#2591
b0111011 !
1*
#2596
0*
#2601
b0111100 !
1*
#2606
0*
#2611
b0111101 !
1*
#2616
0*
#2621
b0111110 !
1*
#2626
0*
#2631
b0111111 !
1*
#2636
0*
#2641
b1000000 !
1*
#2646
0*
#2651
b1000001 !
1*
#2656
0*
#2661
b1000010 !
1*
#2666
0*
#2671
b1000011 !
1*
#2676
0*
#2681
b1000100 !
1*
#2686
0*
#2691
b1000101 !
1*
#2696
0*
#2701
b1000110 !
1*
#2706
0*
#2711
b1000111 !
1*
#2716
0*
#2721
b1001000 !
1*
#2726
0*
#2731
b1001001 !
1*
#2736
0*
#2741
b1001010 !
1*
#2746
0*
#2751
b1001011 !
1*
#2756
0*
#2761
b1001100 !
1*
#2766
0*
#2771
b1001101 !
1*
#2776
0*
#2781
b1001110 !
1*
#2786
0*
#2791
b1001111 !
1*
#2796
0*
#2801
b1010000 !
1*
#2806
0*
#2811
b1010001 !
1*
#2816
0*
#2821
b1010010 !
1*
#2826
0*
#2831
b1010011 !
1*
#2836
0*
#2841
b1010100 !
1*
#2846
0*
#2851
b1010101 !
1*
#2856
0*
#2861
b1010110 !
1*
#2866
0*
#2871
b1010111 !
1*
#2876
0*
#2881
b1011000 !
1*
#2886
0*
#2891
b1011001 !
1*
#2896
0*
#2901
b1011010 !
1*
#2906
0*
#2911
b1011011 !
1*
#2916
0*
#2921
b1011100 !
1*
#2926
0*
#2931
b1011101 !
1*
#2936
0*
#2941
b1011110 !
1*
#2946
0*
#2951
b1011111 !
1*
#2956
0*
#2961
b1100000 !
1*
#2966
0*
#2971
b1100001 !
1*
#2976
0*
#2981
b1100010 !
1*
#2986
0*
#2991
b1100011 !
1)
1*
#2996
0*
#3001
b0000000 !
b011 $
1%
0)
1*
1.
#3006
0*
#3011
b0000001 !
b00000001 "
1#
b00000001 '
1*
0.
#3016
0*
#3021
b0000010 !
1*
#3026
0*
#3031
b0000011 !
1*
#3036
0*
#3041
b0000100 !
1*
#3046
0*
#3051
b0000101 !
1*
#3056
0*
#3061
b0000110 !
1*
#3066
0*
#3071
b0000111 !
1*
#3076
0*
#3081
b0001000 !
1*
#3086
0*
#3091
b0001001 !
1*
#3096
0*
#3101
b0001010 !
1*
#3106
0*
#3111
b0001011 !
1*
#3116
0*
#3121
b0001100 !
1*
#3126
0*
#3131
b0001101 !
1*
#3136
0*
#3141
b0001110 !
1*
#3146
0*
#3151
b0001111 !
1*
#3156
0*
#3161
b0010000 !
1*
#3166
0*
#3171
b0010001 !
1*
#3176
0*
#3181
b0010010 !
1*
#3186
0*
#3191
b0010011 !
1*
#3196
0*
#3201
b0010100 !
1*
#3206
0*
#3211
b0010101 !
1*
#3216
0*
#3221
b0010110 !
1*
#3226
0*
#3231
b0010111 !
1*
#3236
0*
#3241
b0011000 !
1*
#3246
0*
#3251
b0011001 !
1*
#3256
0*
#3261
b0011010 !
1*
#3266
0*
#3271
b0011011 !
1*
#3276
0*
#3281
b0011100 !
1*
#3286
0*
#3291
b0011101 !
1*
#3296
0*
#3301
b0011110 !
1*
#3306
0*
#3311
b0011111 !
1*
#3316
0*
#3321
b0100000 !
1*
#3326
0*
#3331
b0100001 !
1*
#3336
0*
#3341
b0100010 !
1*
#3346
0*
#3351
b0100011 !
1*
#3356
0*
#3361
b0100100 !
1*
#3366
0*
#3371
b0100101 !
1*
#3376
0*
#3381
b0100110 !
1*
#3386
0*
#3391
b0100111 !
1*
#3396
0*
#3401
b0101000 !
1*
#3406
0*
#3411
b0101001 !
1*
#3416
0*
#3421
b0101010 !
1*
#3426
0*
0,
