test_run_dir/SyncReset_should_synchronize/SyncReset.vcd
$date
2026-01-09T09:38+0000
$end
$version
0.2
$end
$comment

$end
$timescale 1ns  $end
$scope module SyncReset $end
 $var wire 8 ! io_value $end
 $var wire 1 # cnt $end
 $var wire 1 $ syncReset $end
 $var wire 1 & clock $end
 $var wire 1 ' reset $end
 $var wire 1 * syncReset_REG $end
  $scope module cnt $end
   $var wire 1 " clock $end
   $var wire 1 % reset $end
   $var wire 8 ( cntReg $end
   $var wire 8 ) io_cnt $end
  $upscope $end
$upscope $end
$enddefinitions $end
$dumpvars
0"
0#
0$
0%
0&
b00000000 )
0'
b00000000 (
0*
b00000000 !
$end
#0
1'
#1
b00000001 !
1"
1&
b00000001 (
b00000001 )
1*
#6
0"
0&
0'
#11
b00000010 !
1"
1$
1%
1&
b00000010 (
b00000010 )
0*
#16
0"
0&
#21
b00000000 !
1"
0$
0%
1&
b00000000 (
b00000000 )
#26
0"
0&
#31
b00000001 !
1"
1&
b00000001 (
b00000001 )
#36
0"
0&
#41
b00000010 !
1"
1&
b00000010 (
b00000010 )
#46
0"
0&
#51
b00000011 !
1"
1&
b00000011 (
b00000011 )
#56
0"
0&
#61
b00000100 !
1"
1&
b00000100 (
b00000100 )
#66
0"
0&
#71
b00000000 !
1"
1&
b00000000 (
b00000000 )
#76
0"
0&
#81
b00000001 !
1"
1&
b00000001 (
b00000001 )
#86
0"
0&
#91
b00000010 !
1"
1&
b00000010 (
b00000010 )
#96
0"
0&
#101
b00000011 !
1"
1&
b00000011 (
b00000011 )
#106
0"
0&
#111
b00000100 !
1"
1&
b00000100 (
b00000100 )
#116
0"
0&
#121
b00000000 !
1"
1&
b00000000 (
b00000000 )
#126
0"
0&
#131
b00000001 !
1"
1&
b00000001 (
b00000001 )
#136
0"
0&
#141
b00000010 !
1"
1&
b00000010 (
b00000010 )
#146
0"
0&
#151
b00000011 !
1"
1&
b00000011 (
b00000011 )
#156
0"
0&
#161
b00000100 !
1"
1&
b00000100 (
b00000100 )
#166
0"
0&
#171
b00000000 !
1"
1&
b00000000 (
b00000000 )
#176
0"
0&
#181
b00000001 !
1"
1&
b00000001 (
b00000001 )
#186
0"
0&
#191
b00000010 !
1"
1&
b00000010 (
b00000010 )
#196
0"
0&
#201
b00000011 !
1"
1&
b00000011 (
b00000011 )
