test_run_dir/Xbr2xPipeline_should_emit_W1H1_blocks_for_centers_x1y1/Xbr2xPipeline.vcd
$date
2026-01-10T12:34+0000
$end
$version
0.2
$end
$comment

$end
$timescale 1ns  $end
$scope module Xbr2xPipeline $end
 $var wire 8 & s1_row_m2 $end
 $var wire 8 ' s1_row_m1 $end
 $var wire 8 5 buf1 $end
 $var wire 8 6 buf2 $end
 $var wire 8 7 buf0 $end
 $var wire 16 9 io_out_bits_y $end
 $var wire 16 : io_out_bits_x $end
 $var wire 1 ; s2_sof $end
 $var wire 8 C e0 $end
 $var wire 8 E e1 $end
 $var wire 8 F e2 $end
 $var wire 8 G e3 $end
 $var wire 8 I s2_win_reg_E $end
 $var wire 8 J s2_win_reg_D $end
 $var wire 8 K s2_win_reg_B $end
 $var wire 16 L x $end
 $var wire 16 M y $end
 $var wire 8 N s2_win_reg_H $end
 $var wire 8 P s2_win_reg_F $end
 $var wire 1 Q s1_eol $end
 $var wire 1 Z io_in_bits_sof $end
 $var wire 8 ` io_in_bits_pix $end
 $var wire 8 d raw_m2 $end
 $var wire 8 f raw_m1 $end
 $var wire 8 h io_out_bits_block_0 $end
 $var wire 8 i s1_pix $end
 $var wire 1 j io_in_ready $end
 $var wire 1 k s1_sof $end
 $var wire 2 l s1_prev2Idx $end
 $var wire 1 n bNeqH $end
 $var wire 8 q io_out_bits_block_3 $end
 $var wire 8 r io_out_bits_block_1 $end
 $var wire 8 s io_out_bits_block_2 $end
 $var wire 1 w io_in_bits_eol $end
 $var wire 1 { io_out_valid $end
 $var wire 8 "" s3_win_H $end
 $var wire 8 "# s3_win_F $end
 $var wire 8 "$ s3_win_E $end
 $var wire 8 "% s3_win_D $end
 $var wire 8 "& s3_win_B $end
 $var wire 1 "( stall $end
 $var wire 1 ") s4_sof $end
 $var wire 1 "1 io_in_valid $end
 $var wire 8 "2 next_sr2_2 $end
 $var wire 8 "3 next_sr2_1 $end
 $var wire 1 "4 s3_emit $end
 $var wire 1 "< s3_eol $end
 $var wire 2 "A buf1_r1_addr_pipe_0 $end
 $var wire 8 "E next_sr1_0 $end
 $var wire 8 "F next_sr1_2 $end
 $var wire 8 "G next_sr1_1 $end
 $var wire 1 "L clock $end
 $var wire 1 "N buf2_r2_en_pipe_0 $end
 $var wire 8 "P next_sr0_1 $end
 $var wire 2 "Q s1_prevIdx $end
 $var wire 1 "R s2_eol $end
 $var wire 8 "T next_sr0_2 $end
 $var wire 1 "X s3_sof $end
 $var wire 1 "Z dNeqF $end
 $var wire 1 "[ fireIn $end
 $var wire 2 "] buf0_r0_addr_pipe_0 $end
 $var wire 1 "i io_out_bits_sof $end
 $var wire 2 "o prev2Idx $end
 $var wire 8 "v sr2_2 $end
 $var wire 8 "~ sr1_2 $end
 $var wire 8 #! sr1_1 $end
 $var wire 1 #$ v1 $end
 $var wire 1 #' v2 $end
 $var wire 1 #( v3 $end
 $var wire 1 #) v4 $end
 $var wire 2 #+ prevIdx $end
 $var wire 1 #. s4_eol $end
 $var wire 16 #/ s1_x $end
 $var wire 1 #0 s4_emit $end
 $var wire 16 #2 s1_y $end
 $var wire 8 #> s4_block_0 $end
 $var wire 8 #? s4_block_1 $end
 $var wire 8 #@ s4_block_2 $end
 $var wire 8 #A s4_block_3 $end
 $var wire 2 #E buf2_r2_addr_pipe_0 $end
 $var wire 1 #F buf1_r1_en_pipe_0 $end
 $var wire 1 #I outQ $end
 $var wire 16 #N s3_xc $end
 $var wire 1 #\ reset $end
 $var wire 16 #_ s2_yc $end
 $var wire 1 #d io_out_ready $end
 $var wire 16 #i s2_xc $end
 $var wire 1 #o io_out_bits_eol $end
 $var wire 16 #p s4_yc $end
 $var wire 1 #r firstCol $end
 $var wire 16 #w s4_xc $end
 $var wire 8 #z sr0_2 $end
 $var wire 2 #| curIdx $end
 $var wire 1 #} buf0_r0_en_pipe_0 $end
 $var wire 1 $! s2_emit $end
 $var wire 16 $$ s3_yc $end
  $scope module outQ $end
   $var wire 1 % io_deq_bits_sof $end
   $var wire 1 3 empty $end
   $var wire 8 = ram_block_2 $end
   $var wire 8 ? ram_block_3 $end
   $var wire 8 @ ram_block_0 $end
   $var wire 8 A ram_block_1 $end
   $var wire 4 U deq_ptr_value $end
   $var wire 1 X reset $end
   $var wire 4 [ enq_ptr_value $end
   $var wire 1 ] maybe_full $end
   $var wire 1 ^ io_deq_ready $end
   $var wire 1 m do_enq $end
   $var wire 8 t io_enq_bits_block_3 $end
   $var wire 8 v io_enq_bits_block_2 $end
   $var wire 8 y io_enq_bits_block_1 $end
   $var wire 8 z io_enq_bits_block_0 $end
   $var wire 1 "5 io_enq_ready $end
   $var wire 1 "C io_deq_bits_eol $end
   $var wire 16 "` io_deq_bits_y $end
   $var wire 16 "a io_deq_bits_x $end
   $var wire 1 "f full $end
   $var wire 1 "s ptr_match $end
   $var wire 1 "u io_enq_bits_eol $end
   $var wire 1 #3 io_enq_valid $end
   $var wire 1 #5 io_enq_bits_sof $end
   $var wire 1 #< io_deq_valid $end
   $var wire 16 #B io_enq_bits_x $end
   $var wire 16 #C io_enq_bits_y $end
   $var wire 1 #M clock $end
   $var wire 1 #S ram_eol $end
   $var wire 8 #T io_deq_bits_block_2 $end
   $var wire 8 #U io_deq_bits_block_3 $end
   $var wire 8 #V io_deq_bits_block_0 $end
   $var wire 8 #W io_deq_bits_block_1 $end
   $var wire 16 #f ram_x $end
   $var wire 16 #g ram_y $end
   $var wire 1 #s ram_sof $end
   $var wire 1 #v do_deq $end
    $scope module ram_y $end
     $var wire 16 #6 MPORT $end
      $scope module io_deq_bits_MPORT $end
       $var wire 1 ! en $end
       $var wire 16 Y data $end
       $var wire 1 o clk $end
       $var wire 4 ", addr $end
      $upscope $end
      $scope module MPORT $end
       $var wire 1 * valid $end
       $var wire 1 x pipeline_valid_0 $end
       $var wire 1 "/ mask $end
       $var wire 1 "0 en $end
       $var wire 4 "9 pipeline_addr_0 $end
       $var wire 1 "_ clk $end
       $var wire 16 "j data $end
       $var wire 4 "{ addr $end
       $var wire 16 #~ pipeline_data_0 $end
      $upscope $end
    $upscope $end
    $scope module ram_block_0 $end
     $var wire 8 #a MPORT $end
      $scope module MPORT $end
       $var wire 8 " pipeline_data_0 $end
       $var wire 1 ) valid $end
       $var wire 1 R clk $end
       $var wire 4 S pipeline_addr_0 $end
       $var wire 1 g en $end
       $var wire 8 "g data $end
       $var wire 1 "w pipeline_valid_0 $end
       $var wire 4 "y addr $end
       $var wire 1 #b mask $end
      $upscope $end
      $scope module io_deq_bits_MPORT $end
       $var wire 1 "- en $end
       $var wire 1 "6 clk $end
       $var wire 4 "t addr $end
       $var wire 8 "| data $end
      $upscope $end
    $upscope $end
    $scope module ram_eol $end
     $var wire 1 "J MPORT $end
      $scope module MPORT $end
       $var wire 1 # valid $end
       $var wire 4 $ pipeline_addr_0 $end
       $var wire 1 p pipeline_data_0 $end
       $var wire 1 "b en $end
       $var wire 1 #= clk $end
       $var wire 1 #J mask $end
       $var wire 1 #u pipeline_valid_0 $end
       $var wire 1 #{ data $end
       $var wire 4 $% addr $end
      $upscope $end
      $scope module io_deq_bits_MPORT $end
       $var wire 1 "M en $end
       $var wire 1 "d data $end
       $var wire 4 "x addr $end
       $var wire 1 $" clk $end
      $upscope $end
    $upscope $end
    $scope module ram_sof $end
     $var wire 1 #, MPORT $end
      $scope module MPORT $end
       $var wire 1 ( mask $end
       $var wire 1 V clk $end
       $var wire 4 "? addr $end
       $var wire 4 "@ pipeline_addr_0 $end
       $var wire 1 "S data $end
       $var wire 1 #: valid $end
       $var wire 1 #K pipeline_data_0 $end
       $var wire 1 #Y pipeline_valid_0 $end
       $var wire 1 #q en $end
      $upscope $end
      $scope module io_deq_bits_MPORT $end
       $var wire 1 "q en $end
       $var wire 4 #] addr $end
       $var wire 1 #h data $end
       $var wire 1 #t clk $end
      $upscope $end
    $upscope $end
    $scope module ram_block_2 $end
     $var wire 8 #9 MPORT $end
      $scope module MPORT $end
       $var wire 1 , valid $end
       $var wire 1 H pipeline_valid_0 $end
       $var wire 1 e clk $end
       $var wire 1 "> mask $end
       $var wire 1 "l en $end
       $var wire 8 "m pipeline_data_0 $end
       $var wire 4 "} addr $end
       $var wire 8 #- data $end
       $var wire 4 $# pipeline_addr_0 $end
      $upscope $end
      $scope module io_deq_bits_MPORT $end
       $var wire 4 D addr $end
       $var wire 8 _ data $end
       $var wire 1 ". clk $end
       $var wire 1 #G en $end
      $upscope $end
    $upscope $end
    $scope module ram_block_1 $end
     $var wire 8 #R MPORT $end
      $scope module MPORT $end
       $var wire 1 - valid $end
       $var wire 4 0 addr $end
       $var wire 8 | pipeline_data_0 $end
       $var wire 1 } mask $end
       $var wire 8 "Y data $end
       $var wire 1 "k clk $end
       $var wire 1 #Q pipeline_valid_0 $end
       $var wire 1 #[ en $end
       $var wire 4 #k pipeline_addr_0 $end
      $upscope $end
      $scope module io_deq_bits_MPORT $end
       $var wire 1 2 clk $end
       $var wire 1 #L en $end
       $var wire 4 #` addr $end
       $var wire 8 #m data $end
      $upscope $end
    $upscope $end
    $scope module ram_block_3 $end
     $var wire 8 c MPORT $end
      $scope module MPORT $end
       $var wire 1 . valid $end
       $var wire 8 "+ pipeline_data_0 $end
       $var wire 1 "8 pipeline_valid_0 $end
       $var wire 1 #" clk $end
       $var wire 1 #* mask $end
       $var wire 1 #; en $end
       $var wire 8 #Z data $end
       $var wire 4 #e pipeline_addr_0 $end
       $var wire 4 #l addr $end
      $upscope $end
      $scope module io_deq_bits_MPORT $end
       $var wire 4 "D addr $end
       $var wire 1 "V en $end
       $var wire 8 "W data $end
       $var wire 1 "c clk $end
      $upscope $end
    $upscope $end
    $scope module ram_x $end
     $var wire 16 1 MPORT $end
      $scope module MPORT $end
       $var wire 1 / valid $end
       $var wire 1 O mask $end
       $var wire 16 b data $end
       $var wire 1 "; clk $end
       $var wire 4 "= addr $end
       $var wire 4 "U pipeline_addr_0 $end
       $var wire 1 "n pipeline_valid_0 $end
       $var wire 16 #^ pipeline_data_0 $end
       $var wire 1 #y en $end
      $upscope $end
      $scope module io_deq_bits_MPORT $end
       $var wire 1 4 en $end
       $var wire 16 "\ data $end
       $var wire 4 "h addr $end
       $var wire 1 ## clk $end
      $upscope $end
    $upscope $end
  $upscope $end
  $scope module buf0 $end
   $var wire 8 + MPORT $end
    $scope module MPORT $end
     $var wire 1 < mask $end
     $var wire 1 > pipeline_valid_0 $end
     $var wire 1 a clk $end
     $var wire 8 u data $end
     $var wire 8 "H pipeline_data_0 $end
     $var wire 2 "e pipeline_addr_0 $end
     $var wire 2 #7 addr $end
     $var wire 1 #c en $end
     $var wire 1 #x valid $end
    $upscope $end
    $scope module r0 $end
     $var wire 1 "! clk $end
     $var wire 1 #1 en $end
     $var wire 8 #H data $end
     $var wire 2 #X addr $end
    $upscope $end
  $upscope $end
  $scope module buf2 $end
   $var wire 8 "z MPORT_2 $end
    $scope module r2 $end
     $var wire 1 8 en $end
     $var wire 1 "^ clk $end
     $var wire 8 "p data $end
     $var wire 2 #& addr $end
    $upscope $end
    $scope module MPORT_2 $end
     $var wire 1 \ clk $end
     $var wire 1 "B mask $end
     $var wire 8 "O pipeline_data_0 $end
     $var wire 2 #% addr $end
     $var wire 8 #4 data $end
     $var wire 1 #8 valid $end
     $var wire 1 #D en $end
     $var wire 2 #P pipeline_addr_0 $end
     $var wire 1 #n pipeline_valid_0 $end
    $upscope $end
  $upscope $end
  $scope module buf1 $end
   $var wire 8 "* MPORT_1 $end
    $scope module r1 $end
     $var wire 8 B data $end
     $var wire 2 T addr $end
     $var wire 1 "' en $end
     $var wire 1 "K clk $end
    $upscope $end
    $scope module MPORT_1 $end
     $var wire 1 W valid $end
     $var wire 8 ~ data $end
     $var wire 2 "7 addr $end
     $var wire 8 ": pipeline_data_0 $end
     $var wire 1 "I en $end
     $var wire 1 "r mask $end
     $var wire 1 #O clk $end
     $var wire 1 #j pipeline_valid_0 $end
     $var wire 2 $& pipeline_addr_0 $end
    $upscope $end
  $upscope $end
$upscope $end
$enddefinitions $end
$dumpvars
02
03
b0000 "h
b00000000 f
b00000000 i
b00000000 h
08
b00000000 c
0;
b00000000 d
b00000000 _
0>
b00000000 `
b0000000000000000 1
1!
b0000 "t
b00000000 z
b00000000 |
b0000 "y
b0000 "x
b00000000 v
b0000 "{
b00000000 y
1(
b0000000000000000 9
0H
b0000 "}
b00000000 s
b0000 #]
b00000000 r
b0000 #`
b00000000 u
b00000000 t
b00000000 q
b0000000000000000 :
b0000 $
b00000000 K
0Q
b0000 #e
b00000000 J
0R
14
b00000000 G
b00000000 F
0V
b0000 #l
b00000000 I
0W
b0000 #k
0X
b00000000 C
b00000000 B
0Z
b00000000 E
1<
0\
b00000000 ?
0]
0^
b00000000 A
b00000000 @
0a
b0000 0
0e
0g
0j
0k
1"-
0m
b00000000 N
1O
0n
1"/
0o
b00000000 P
0p
b00 #|
0w
0x
0{
1">
1"B
1#*
1"M
b0000000000000000 #6
1"V
b00 #X
b0000000000000000 "\
1}
b0000000000000000 "`
b0000000000000000 "a
b0000000000000000 #B
b00000000 ~
b0000000000000000 #C
b0000000000000000 $$
0"!
b00 "e
b00 #E
b00 $&
0"'
1#G
0"(
0")
1#J
1#L
b0000000000000000 #/
0".
b0000000000000000 #2
b00 "o
b00 #P
0"0
0"1
1"q
b00000000 "g
b00000000 #H
1"r
0"4
0"5
0"6
0"8
b00 #7
0";
0"<
b00000000 "m
b00 "]
b00000000 #T
b00000000 #R
0#"
b00000000 "p
0##
1#b
0"C
0#$
b00000000 "v
b00000000 #W
b00000000 #V
b00 #+
b00000000 #U
b00 #&
0#'
b00 #%
0#(
b00000000 "z
0#)
b00000000 #Z
0"I
b00 "Q
0"J
0"K
0#,
b00000000 "~
0"L
0#.
b00000000 "|
0"N
0#0
0#1
b00000000 #a
0"R
0#3
0"S
0#5
0#8
b00 "7
0"X
0#:
b00 "A
0"Z
0#;
0"[
0#<
0#=
b00000000 #m
0"^
0"_
0$!
0$"
0"b
0"c
0#D
0"d
0#F
0"f
0#I
b00000000 #z
0"i
0#K
0"k
0"l
0#M
0"n
0#O
0#Q
0#S
0"s
0"u
0"w
0#Y
0#[
0#\
0#c
0#d
0#h
b00 l
0#j
0#n
0#o
0#q
0#r
0#s
0#t
0#u
0#v
0#x
0#y
0#{
0#}
b00 T
b00000000 "#
b00000000 ""
b00000000 "&
b00000000 "%
b00000000 "$
b00000000 "+
b00000000 "*
b00000000 "3
b00000000 "2
b00000000 ":
b00000000 #!
b00000000 "G
b00000000 "F
b00000000 "E
b00000000 "H
b00000000 "O
b00000000 #-
b00000000 #4
b00000000 "P
b00000000 "W
b00000000 "T
b00000000 "Y
b00000000 #9
b00000000 #@
b00000000 #?
b00000000 #>
b00000000 #A
b0000000000000000 #^
b0000000000000000 #_
b0000000000000000 "j
b0000000000000000 #N
b0000000000000000 #w
b0000000000000000 #~
b0000000000000000 #f
b0000000000000000 #g
b0000000000000000 #i
b0000000000000000 #p
b0000 D
b00000000 +
b00000000 '
b00000000 &
b0000000000000000 b
b0000 ",
b00000000 "
b0000 U
b00000000 =
b0000 S
b0000 "9
b00000000 7
b00000000 6
b0000 "=
b0000 "?
b00000000 5
b0000 [
b0000 "@
b0000 "D
b0000000000000000 M
b0000000000000000 L
b0000 "U
0#
0%
b0000000000000000 Y
0)
0*
0,
b0000 $#
0-
0.
b0000 $%
0/
$end
#0
1"s
13
1"5
1X
1#\
1j
1#r
#1
1"c
1"k
1#M
1".
1#O
b10 "o
1R
1"6
1V
1";
1\
1#"
1##
1a
1e
b01 #+
1"K
1"L
1o
1#t
12
1#=
1"^
1"_
1$"
1"!
#6
0"c
0"k
0#M
0".
0#O
1"1
0R
0"6
0V
0X
0";
0#\
1Z
0\
1^
0#"
0##
1#c
0a
1#d
0e
0"K
0"L
0o
0#t
02
1#x
1"[
0#=
0"^
0"_
0$"
0"!
#11
1"c
1#F
1"'
1"k
1#M
b0000000000000001 L
1".
1#O
1R
1"6
b01 "7
1V
1";
1\
1#"
1##
1a
1#$
b01 #%
1e
1"K
1"L
1k
b10 l
1"N
1o
b01 "Q
1#t
12
b01 #7
18
1#=
1"^
1"_
1>
1$"
1"!
#16
0"c
0"k
0#M
0".
0#O
1"1
0R
0"6
0V
0";
0Z
0\
0#"
b00000001 `
0##
1#c
0a
0e
0"K
0"L
0o
b00000001 #4
0#t
02
b00000001 u
1#x
1"[
0#=
0"^
0"_
b00000001 ~
0$"
0"!
#21
1"c
b01 $&
b01 #E
b01 "e
1"k
1#M
1#O
b01 #P
b1111111111111111 #_
b00000001 &
b1111111111111111 #i
b00000001 '
0#r
1#t
12
1;
1"!
b0000000000000010 L
1".
b00000001 "2
1R
b01 T
1"6
b10 "7
1V
b00000001 ":
1";
1\
b01 "A
1#"
1##
1a
b10 #%
b01 #&
1#'
b00000001 "F
1e
b00000001 "H
b00000001 i
1"K
1"L
0k
b0000000000000001 #/
b00000001 "O
1o
b00000001 "T
b10 #7
1#=
1"^
1"_
1$"
#26
0"c
0"k
0#M
0".
0#O
1"1
0R
0"6
0V
0";
0\
0#"
b00000010 `
0##
1#c
0a
0e
0"K
0"L
0o
b00000010 #4
0#t
02
b00000010 u
1#x
1"[
0#=
0"^
0"_
b00000010 ~
0$"
0"!
#31
b1111111111111111 $$
1"c
b10 $&
b10 #E
b10 "e
1"k
1#M
b1111111111111111 #N
1#O
b10 #P
b00000001 "v
b00000001 "~
b00000010 &
b0000000000000000 #i
b00000010 '
1#t
12
b00000001 #z
0;
1"!
b0000000000000011 L
1".
b00000001 P
b00000010 "2
b00000001 "3
1R
b10 T
1"6
b11 "7
1V
b00000010 ":
1";
1\
b10 "A
1#"
1##
1a
b11 #%
b10 #&
b00000010 "F
1e
1#(
b00000001 "G
b00000010 "H
b00000010 i
1"K
1"L
b0000000000000010 #/
b00000010 "O
b00000001 "P
1o
b00000010 "T
b11 #7
1"X
1#=
1"^
1"_
1$"
#36
0"c
0"k
0#M
0".
0#O
1"1
0R
0"6
0V
0";
0\
0#"
b00000011 `
0##
1#c
0a
0e
0"K
0"L
0o
b00000011 #4
0#t
02
b00000011 u
1#x
1w
1"[
0#=
0"^
0"_
b00000011 ~
0$"
0"!
#41
b1111111111111111 #C
1#D
1"c
b11 $&
b11 #E
b11 "e
b1111111111111111 "j
1"k
1#M
b0000000000000000 #N
1#O
b11 #P
b01 "o
b00000010 "v
b00000010 "~
0#c
b00000011 &
b0000000000000001 #i
b00000011 '
b1111111111111111 #p
1#t
12
b1111111111111111 #w
0#x
b00000010 #z
b10 #|
1"!
b00000001 "#
1")
b00000001 I
b00000001 K
b0000000000000000 L
1".
b0000000000000001 M
b00000001 N
b00000010 P
b00000011 "2
1Q
b00000010 "3
1R
b11 T
1"6
b00 "7
1V
b00000011 ":
1";
1\
b00000001 #!
b11 "A
1#"
1##
1a
b1111111111111111 b
b00 #%
b11 #&
b00000001 "E
b00000011 "F
1e
b00000010 "G
1#)
b00000011 "H
b00 #+
b00000011 i
1"K
1"L
b0000000000000011 #/
b00000011 "O
b00000010 "P
1o
1"S
b00000011 "T
1#5
b00 #7
1#8
0"X
1#=
1"^
1"_
1$"
b1111111111111111 #B
#46
0"c
1#D
0"k
0#M
0".
0#O
1"1
0R
0"6
0V
0";
0\
0#"
b00000100 `
0##
0a
0e
0"K
0"L
0o
b00000100 #4
0#t
02
b00000100 u
1#8
0w
1"[
0#=
0"^
0"_
b00000100 ~
0$"
0"!
#51
1"c
b00 $&
b00 "e
1#K
1"k
1#M
b0000000000000001 #N
1#O
b00 #P
b00000011 "v
b1111111111111111 #^
b00000011 "~
b00000000 &
b0000000000000010 #i
b00000000 '
1#n
1#r
1#t
12
b0000000000000000 #w
b00000011 #z
08
1#}
b1111111111111111 #~
0>
1"!
b00000001 ""
b00000010 "#
b00000001 "$
b00000001 C
b00000001 "&
b00000001 E
b00000001 F
b00000001 G
0")
b00000010 I
b00000001 J
b00000010 K
b0000000000000001 L
1".
b00000010 N
b00000011 P
b00000000 "2
0Q
b00000000 "3
1R
b00 T
1"6
b01 "7
1V
b00000100 ":
1";
1\
b00000010 #!
b00 "A
1#"
1##
1a
b0000000000000000 b
b01 #%
b00000000 "E
b00000000 "F
1e
b00000000 "G
b00000100 "H
b00000100 i
1"K
1"L
b01 l
b0000000000000000 #/
0"N
b00000100 "O
b00000100 "P
1#1
1o
b00 "Q
b0000000000000001 #2
1"R
0"S
b00000100 "T
0#5
b01 #7
1#=
1"^
1"_
1$"
b0000000000000000 #B
#56
0"c
1#D
0"k
0#M
0".
0#O
1"1
0R
0"6
0V
0";
0\
0#"
b00000101 `
0##
0a
0e
0"K
0"L
0o
b00000101 #4
0#t
02
b00000101 u
1#8
1"[
0#=
0"^
0"_
b00000101 ~
0$"
0"!
#61
1"c
b01 $&
b01 "e
b00000001 #H
b00000001 "g
0#K
1"k
1#M
b0000000000000010 #N
1#O
b01 #P
b00000000 "v
b01 #X
b00000001 #Z
b0000000000000000 #^
b0000000000000000 #_
b00000000 "~
b00000001 &
b1111111111111111 #i
b00000001 '
0#r
1#t
12
b0000000000000001 #w
b00000100 #z
1"!
b00000010 ""
b00000011 "#
b00000010 "$
b00000010 C
b00000001 "%
b00000010 "&
b00000010 E
b00000010 F
b00000010 G
b00000000 I
b00000000 J
b00000000 K
b0000000000000010 L
1".
b00000100 N
b00000000 P
b00000001 "2
1R
b01 T
1"6
b10 "7
1V
b00000101 ":
1";
1"<
1\
b00000000 #!
b01 "A
1#"
1##
1a
b0000000000000001 b
b10 #%
b00000001 "F
1e
b00000001 f
b00000101 "H
b00000101 i
1"K
1"L
b00000001 #-
b0000000000000001 #/
b00000101 "O
1o
0"R
b00000101 "T
b00000001 t
b10 #7
b00000001 v
b00000001 "Y
b00000001 y
b00000001 z
1#=
b00000001 #>
b01 "]
1"^
b00000001 #?
b00000001 #@
1"_
b00000001 #A
1$"
b0000000000000001 #B
#66
0"c
1#D
0"k
0#M
0".
0#O
1"1
0R
0"6
0V
0";
0\
0#"
b00000110 `
0##
0a
0e
0"K
0"L
0o
b00000110 #4
0#t
02
b00000110 u
1#8
1"[
0#=
0"^
0"_
b00000110 ~
0$"
0"!
#71
b0000000000000000 $$
1"c
b10 $&
b10 "e
b00000010 #H
b00000010 "g
1"k
1#M
b1111111111111111 #N
b00000001 "m
1#O
b10 #P
1"u
b00000001 "v
b10 #X
b00000010 #Z
b0000000000000001 #^
b00000001 "~
b00000001 "
b00000010 &
b0000000000000000 #i
b00000010 '
1#t
12
b0000000000000010 #w
b00000101 #z
1#{
1"!
b00000100 ""
b00000000 "#
b00000000 "$
b00000000 C
b00000000 "%
b00000000 "&
b00000000 E
b00000000 F
b00000000 G
b00000001 "+
b0000000000000011 L
1".
b00000001 P
b00000010 "2
b00000001 "3
1R
b10 T
1"6
b11 "7
1V
b00000110 ":
1";
0"<
1\
b10 "A
1#"
1##
1a
b0000000000000010 b
b11 #%
b00000010 "F
1e
b00000001 "G
b00000010 f
b00000110 "H
b00000110 i
1"K
1"L
b00000010 #-
1#.
b0000000000000010 #/
b00000110 "O
b00000101 "P
1o
b00000110 "T
b00000010 t
b11 #7
b00000010 v
b00000010 "Y
b00000010 y
b00000010 z
1#=
b00000010 #>
b10 "]
b00000001 |
1"^
b00000010 #?
b00000010 #@
1$!
1"_
b00000010 #A
1$"
b0000000000000010 #B
#76
0"c
1#D
0"k
0#M
0".
0#O
1"1
0R
0"6
0V
0";
0\
0#"
b00000111 `
0##
0a
0e
0"K
0"L
0o
b00000111 #4
0#t
02
b00000111 u
1#8
1w
1"[
0#=
0"^
0"_
b00000111 ~
0$"
0"!
#81
b00000010 "
b00000011 &
b00000011 '
12
1"!
b00000001 "#
b00000001 I
b00000010 "+
b00000001 K
b0000000000000000 L
1".
b0000000000000010 M
b00000101 N
b00000010 P
b00000011 "2
1Q
b00000010 "3
1R
1"4
b11 T
1"6
b00 "7
1V
1W
b00000111 ":
1";
1\
b00000001 #!
b11 "A
1#"
1##
1a
b1111111111111111 b
b00 #%
b00000001 "E
b00000011 "F
1e
b00000010 "G
b00000011 f
b00000111 "H
1"I
b10 #+
b00000111 i
1"K
1"L
b00000000 #-
0#.
b0000000000000011 #/
b00000111 "O
b00000110 "P
1o
1p
b00000111 "T
b00000000 t
b00 #7
0#8
b00000000 v
b00000000 "Y
b00000000 y
b00000000 z
1#=
b00000000 #>
b11 "]
b00000010 |
1"^
b00000000 #?
b00000000 #@
1"_
b00000000 #A
1$"
b1111111111111111 #B
b0000000000000000 #C
0#D
1"c
b11 $&
b11 "e
b00000011 #H
b00000000 "g
b0000000000000000 "j
1"k
1#M
b0000000000000000 #N
b00000010 "m
1#O
b11 #P
b00 "o
b00000111 "p
0"u
b00000010 "v
b11 #X
b00000000 #Z
b0000000000000010 #^
b00000010 "~
b0000000000000001 #i
b0000000000000000 #p
1#t
b1111111111111111 #w
b00000110 #z
0#{
b01 #|
#86
0"c
0"k
0#M
0".
0#O
1"1
0R
0"6
0V
1W
0";
0\
0#"
b00001000 `
0##
0a
0e
1"I
0"K
0"L
0o
b00001000 #4
0#t
02
b00001000 u
0w
1"[
0#=
0"^
0"_
b00001000 ~
0$"
0"!
#91
b00000000 "
1#
b00000000 &
b00000100 '
1)
1*
1,
1-
1.
1/
12
18
1"!
b00000101 ""
b00000010 "#
b00000001 "$
b00000001 C
b00000001 "&
b00000001 E
0"'
b00000001 F
b00000001 G
b00000010 I
b00000000 "+
b00000001 J
b00000010 K
b0000000000000001 L
1".
b00000110 N
1"0
b00000011 P
b00000000 "2
0Q
b00000000 "3
1R
1"6
b01 "7
1V
b00001000 ":
1";
1\
b00000010 #!
1#"
1##
1a
b0000000000000000 b
b01 #%
b00 #&
b00000100 "E
b00000100 "F
1e
b00000100 "G
b00000100 f
b00001000 "H
1g
b00001000 i
1"K
1"L
b00 l
b0000000000000000 #/
1"N
1m
b00001000 "O
1#0
b00001000 "P
1o
b10 "Q
b0000000000000010 #2
0p
1"R
1#3
b00001000 "T
b01 #7
1#:
1#;
1#=
b00 "]
b00000000 |
1"^
1"_
1$"
b0000000000000000 #B
1"b
1"c
b00 $&
b00 #E
0#F
b00 "e
b00000000 #H
1"k
1#M
1"l
b0000000000000001 #N
b00000000 "m
1#O
b00 #P
b00000100 "p
b00000011 "v
b00 #X
1#[
b1111111111111111 #^
b00000011 "~
b0000000000000010 #i
1#j
0#n
1#q
1#r
1#t
b0000000000000000 #w
1#y
b00000111 #z
b0000000000000000 #~
#96
0"c
0"k
0#M
0".
0#O
1"1
0R
0"6
0V
1W
0";
0\
0#"
b00001001 `
0##
0a
0e
1"I
0"K
0"L
0o
b00001001 #4
0#t
02
b00001001 u
1"[
0#=
0"^
0"_
b00001001 ~
0$"
0"!
#101
b00000001 &
b00000101 '
b0001 0
12
03
1"!
b00000110 ""
b00000011 "#
b00000010 "$
b00000010 C
b00000001 "%
b00000010 "&
b00000010 E
b00000010 F
b00000010 G
1H
b00000100 I
b00000100 J
b00000000 K
b0000000000000010 L
1".
b00001000 N
b00000100 P
b00000001 "2
1R
1"6
b10 "7
1V
1"8
b00001001 ":
1";
1"<
b0001 [
b0001 "=
1\
1]
b0001 "?
b00000100 #!
1#"
1##
1a
b0000000000000001 b
b10 #%
b01 #&
b00000001 d
b00000101 "F
1e
b00000101 f
b00001001 "H
b00001001 i
1"K
1"L
b00000001 #-
b0000000000000001 #/
b00001001 "O
1o
0"R
b00001001 "T
b00000001 t
b10 #7
b00000001 v
b00000001 "Y
1x
b00000001 y
1#<
b00000001 z
1#=
1{
b00000001 #>
b01 "]
1"^
b00000001 #?
b00000001 #@
0$!
1"_
b00000001 #A
1$"
b0000000000000001 #B
b0001 $%
1"c
b01 $&
b01 #E
b01 "e
b00000001 #H
b00000001 "g
1"k
1#M
b0000000000000010 #N
1#O
1"n
b01 #P
b00000101 "p
1#Q
0"s
b00000000 "v
b01 #X
1"w
1#Y
b00000001 #Z
b0001 "y
b0001 "{
b0000000000000000 #^
b0001 "}
b0000000000000001 #_
b00000100 "~
b1111111111111111 #i
b0001 #l
0#r
1#t
1#u
1#v
b0000000000000001 #w
b00001000 #z
#106
0"c
0"k
0#M
0".
0#O
1"1
0R
0"6
0V
1W
0";
0\
0#"
b00001010 `
0##
0a
0e
1"I
0"K
0"L
0o
b00001010 #4
0#t
02
b00001010 u
1"[
0#=
0"^
0"_
b00001010 ~
0$"
0"!
