test_run_dir/MemFifo_should_pass/MemFifo.vcd
$date
2026-01-09T09:38+0000
$end
$version
0.2
$end
$comment

$end
$timescale 1ns  $end
$scope module MemFifo $end
 $var wire 1 ! fullReg $end
 $var wire 16 " data $end
 $var wire 1 # incrWrite $end
 $var wire 1 $ io_enq_ready $end
 $var wire 1 % mem_data_MPORT_en_pipe_0 $end
 $var wire 1 ( readCond $end
 $var wire 2 - readPtr $end
 $var wire 1 . read $end
 $var wire 1 / clock $end
 $var wire 1 2 incrRead $end
 $var wire 2 3 nextWrite $end
 $var wire 1 4 reset $end
 $var wire 2 7 mem_data_MPORT_addr_pipe_0 $end
 $var wire 2 8 nextRead $end
 $var wire 1 9 doWrite $end
 $var wire 1 : io_deq_ready $end
 $var wire 16 < mem $end
 $var wire 1 > outputValidReg $end
 $var wire 16 @ io_deq_bits $end
 $var wire 1 B io_deq_valid $end
 $var wire 16 C io_enq_bits $end
 $var wire 1 D io_enq_valid $end
 $var wire 16 E outputReg $end
 $var wire 2 F writePtr $end
  $scope module mem $end
   $var wire 16 & MPORT $end
    $scope module MPORT $end
     $var wire 1 ' valid $end
     $var wire 16 * pipeline_data_0 $end
     $var wire 16 + data $end
     $var wire 1 0 pipeline_valid_0 $end
     $var wire 2 1 pipeline_addr_0 $end
     $var wire 1 5 clk $end
     $var wire 2 ; addr $end
     $var wire 1 ? en $end
     $var wire 1 A mask $end
    $upscope $end
    $scope module data_MPORT $end
     $var wire 1 ) clk $end
     $var wire 2 , addr $end
     $var wire 1 6 en $end
     $var wire 16 = data $end
    $upscope $end
  $upscope $end
$upscope $end
$enddefinitions $end
$dumpvars
00
b00 8
02
b00 7
04
05
06
b00 ;
b0000000000000000 "
b00 1
09
0:
b0000000000000000 &
b0000000000000000 +
0>
b00 3
b0000000000000000 *
0?
0B
0D
b00 -
b00 ,
b0000000000000000 =
b0000000000000000 <
b0000000000000000 @
b0000000000000000 E
b0000000000000000 C
1A
0!
0#
b00 F
0$
0%
0'
0(
0)
0.
0/
$end
#0
b01 3
1$
14
b01 8
#1
1%
15
16
1)
1/
#6
b0000000010101011 C
04
05
0)
b0000000010101011 +
0/
#11
15
1)
b0000000010101011 *
1/
#16
1#
b0000000100100011 C
1D
05
1'
0)
19
b0000000100100011 +
0/
1?
#21
b0000000100100011 "
b01 F
1(
1)
b0000000100100011 *
1.
1/
10
12
b10 3
15
b01 ;
b0000000100100011 =
#26
0#
b0000000010101011 C
0D
05
0'
0)
09
b0000000010101011 +
0/
0?
#31
b0000000100100011 @
1B
b0000000100100011 E
0(
1)
b0000000010101011 *
b01 -
0.
1/
00
b01 1
02
15
b10 8
1>
#36
05
0)
0/
#41
b0000000000000000 "
15
b01 7
1)
b01 ,
b0000000000000000 =
1/
#46
05
0)
0/
#51
15
1)
1/
#56
05
0)
0/
#61
15
1)
1/
#66
05
0)
0/
#71
15
1)
1/
#76
05
0)
0/
#81
15
1)
1/
#86
05
0)
0/
#91
15
1)
1/
#96
05
0)
0/
#101
15
1)
1/
#106
05
0)
0/
#111
15
1)
1/
#116
05
0)
0/
#121
15
1)
1/
#126
05
0)
0/
#131
15
1)
1/
#136
05
0)
0/
#141
15
1)
1/
#146
05
0)
1:
0/
#151
0B
15
1)
0>
1/
#156
05
0)
0:
0/
#161
15
1)
1/
#166
1#
b0000000000000001 C
1D
05
1'
0)
19
b0000000000000001 +
0/
1?
#171
b0000000000000001 "
b10 F
1(
1)
b0000000000000001 *
1.
1/
10
12
b11 3
15
b10 ;
b0000000000000001 =
#176
b0000000000000010 C
05
0)
b0000000000000010 +
0/
#181
b0000000000000001 @
1B
b0000000000000001 E
b11 F
0(
1)
b0000000000000010 *
b10 -
0.
1/
b10 1
02
b00 3
15
b11 8
b11 ;
1>
#186
b0000000000000011 C
05
0)
b0000000000000011 +
0/
#191
b0000000000000010 "
b00 F
1)
b0000000000000011 *
b10 ,
1/
b11 1
b01 3
15
b10 7
b00 ;
b0000000000000010 =
#196
b0000000000000100 C
05
0)
b0000000000000100 +
0/
#201
b00 1
b10 3
15
b01 F
1)
b0000000000000100 *
b01 ;
1/
#206
b0000000000000101 C
05
0)
b0000000000000101 +
0/
#211
1!
0#
0$
b10 F
0'
1)
b0000000000000101 *
1/
b01 1
b11 3
15
09
b10 ;
0?
#216
b0000000000000110 C
05
0)
b0000000000000110 +
0/
#221
00
b10 1
15
1)
b0000000000000110 *
1/
#226
05
0)
0/
#231
15
1)
1/
#236
05
0)
0/
#241
15
1)
1/
#246
05
0)
0/
#251
15
1)
1/
#256
05
0)
0/
#261
15
1)
1/
#266
05
0)
0/
#271
15
1)
1/
#276
05
0)
0/
#281
15
1)
1/
#286
0D
05
0)
1:
0/
#291
12
0B
15
1(
1)
1.
0>
1/
#296
05
0)
0/
#301
b0000000000000010 @
0!
1B
1$
b0000000000000010 E
0(
1)
b11 -
0.
1/
02
15
b00 8
1>
#306
05
0)
0/
#311
b0000000000000011 "
0B
1(
1)
b11 ,
1.
1/
12
15
b11 7
b0000000000000011 =
0>
#316
05
0)
0/
#321
b0000000000000011 @
1B
b0000000000000011 E
0(
1)
b00 -
0.
1/
02
15
b01 8
1>
#326
05
0)
0/
#331
b0000000000000100 "
0B
1(
1)
b00 ,
1.
1/
12
15
b00 7
b0000000000000100 =
0>
#336
05
0)
0/
#341
b0000000000000100 @
1B
b0000000000000100 E
0(
1)
b01 -
0.
1/
02
15
b10 8
1>
#346
05
0)
0/
#351
b0000000000000101 "
0B
1(
1)
b01 ,
1.
1/
12
15
b01 7
b0000000000000101 =
0>
#356
05
0)
0/
#361
b0000000000000101 @
1B
b0000000000000101 E
0(
1)
b10 -
0.
1/
02
15
b11 8
1>
#366
05
0)
0/
#371
b0000000000000010 "
0B
15
b10 7
1)
b10 ,
b0000000000000010 =
0>
1/
#376
05
0)
0/
#381
15
1)
1/
#386
05
0)
0/
#391
15
1)
1/
#396
05
0)
0/
#401
15
1)
1/
#406
1#
b0000000000000000 C
1D
05
1'
0)
19
b0000000000000000 +
0/
1?
#411
b0000000000000000 "
b11 F
1(
1)
b0000000000000000 *
1.
1/
10
12
b00 3
15
b11 ;
b0000000000000000 =
#416
b0000000000000001 C
05
0)
b0000000000000001 +
0/
#421
b0000000000000000 @
1B
b0000000000000000 E
b00 F
0(
1)
b0000000000000001 *
b11 -
0.
1/
b11 1
02
b01 3
15
b00 8
b00 ;
1>
#426
b0000000000000010 C
05
0)
b0000000000000010 +
0/
#431
b0000000000000001 "
0B
b01 F
1(
1)
b0000000000000010 *
b11 ,
1.
1/
b00 1
12
b10 3
15
b11 7
b01 ;
b0000000000000001 =
0>
#436
b0000000000000011 C
05
0)
b0000000000000011 +
0/
#441
b0000000000000001 @
1B
b0000000000000001 E
b10 F
0(
1)
b0000000000000011 *
b00 -
0.
1/
b01 1
02
b11 3
15
b01 8
b10 ;
1>
#446
b0000000000000100 C
05
0)
b0000000000000100 +
0/
#451
b0000000000000010 "
0B
b11 F
1(
1)
b0000000000000100 *
b00 ,
1.
1/
b10 1
12
b00 3
15
b00 7
b11 ;
b0000000000000010 =
0>
#456
b0000000000000101 C
05
0)
b0000000000000101 +
0/
#461
b0000000000000010 @
1B
b0000000000000010 E
b00 F
0(
1)
b0000000000000101 *
b01 -
0.
1/
b11 1
02
b01 3
15
b10 8
b00 ;
1>
#466
b0000000000000110 C
05
0)
b0000000000000110 +
0/
#471
1!
b0000000000000011 "
0B
0#
0$
b01 F
0'
1(
1)
b0000000000000110 *
b01 ,
1.
1/
b00 1
12
b10 3
15
b01 7
09
b01 ;
b0000000000000011 =
0>
0?
#476
b0000000000000111 C
05
0)
b0000000000000111 +
0/
#481
b0000000000000011 @
0!
1B
1#
1$
b0000000000000011 E
1'
0(
1)
b0000000000000111 *
b10 -
0.
1/
00
b01 1
02
15
b11 8
19
1>
1?
#486
b0000000000001000 C
05
0)
b0000000000001000 +
0/
#491
1!
b0000000000000100 "
0B
0#
0$
b10 F
0'
1(
1)
b0000000000001000 *
b10 ,
1.
1/
10
12
b11 3
15
b10 7
09
b10 ;
b0000000000000100 =
0>
0?
#496
b0000000000001001 C
05
0)
b0000000000001001 +
0/
#501
b0000000000000100 @
0!
1B
1#
1$
b0000000000000100 E
1'
0(
1)
b0000000000001001 *
b11 -
0.
1/
00
b10 1
02
15
b00 8
19
1>
1?
#506
b0000000000001010 C
05
0)
b0000000000001010 +
0/
#511
1!
b0000000000000101 "
0B
0#
0$
b11 F
0'
1(
1)
b0000000000001010 *
b11 ,
1.
1/
10
12
b00 3
15
b11 7
09
b11 ;
b0000000000000101 =
0>
0?
#516
b0000000000001011 C
05
0)
b0000000000001011 +
0/
#521
b0000000000000101 @
0!
1B
1#
1$
b0000000000000101 E
1'
0(
1)
b0000000000001011 *
b00 -
0.
1/
00
b11 1
02
15
b01 8
19
1>
1?
#526
b0000000000001100 C
05
0)
b0000000000001100 +
0/
#531
1!
b0000000000000110 "
0B
0#
0$
b00 F
0'
1(
1)
b0000000000001100 *
b00 ,
1.
1/
10
12
b01 3
15
b00 7
09
b00 ;
b0000000000000110 =
0>
0?
#536
b0000000000001101 C
05
0)
b0000000000001101 +
0/
#541
b0000000000000110 @
0!
1B
1#
1$
b0000000000000110 E
1'
0(
1)
b0000000000001101 *
b01 -
0.
1/
00
b00 1
02
15
b10 8
19
1>
1?
#546
b0000000000001110 C
05
0)
b0000000000001110 +
0/
#551
1!
b0000000000001000 "
0B
0#
0$
b01 F
0'
1(
1)
b0000000000001110 *
b01 ,
1.
1/
10
12
b10 3
15
b01 7
09
b01 ;
b0000000000001000 =
0>
0?
#556
b0000000000001111 C
05
0)
b0000000000001111 +
0/
#561
b0000000000001000 @
0!
1B
1#
1$
b0000000000001000 E
1'
0(
1)
b0000000000001111 *
b10 -
0.
1/
00
b01 1
02
15
b11 8
19
1>
1?
#566
b0000000000010000 C
05
0)
b0000000000010000 +
0/
#571
1!
b0000000000001010 "
0B
0#
0$
b10 F
0'
1(
1)
b0000000000010000 *
b10 ,
1.
1/
10
12
b11 3
15
b10 7
09
b10 ;
b0000000000001010 =
0>
0?
#576
b0000000000010001 C
05
0)
b0000000000010001 +
0/
#581
b0000000000001010 @
0!
1B
1#
1$
b0000000000001010 E
1'
0(
1)
b0000000000010001 *
b11 -
0.
1/
00
b10 1
02
15
b00 8
19
1>
1?
#586
b0000000000010010 C
05
0)
b0000000000010010 +
0/
#591
1!
b0000000000001100 "
0B
0#
0$
b11 F
0'
1(
1)
b0000000000010010 *
b11 ,
1.
1/
10
12
b00 3
15
b11 7
09
b11 ;
b0000000000001100 =
0>
0?
#596
b0000000000010011 C
05
0)
b0000000000010011 +
0/
#601
b0000000000001100 @
0!
1B
1#
1$
b0000000000001100 E
1'
0(
1)
b0000000000010011 *
b00 -
0.
1/
00
b11 1
02
15
b01 8
19
1>
1?
#606
b0000000000010100 C
05
0)
b0000000000010100 +
0/
#611
1!
b0000000000001110 "
0B
0#
0$
b00 F
0'
1(
1)
b0000000000010100 *
b00 ,
1.
1/
10
12
b01 3
15
b00 7
09
b00 ;
b0000000000001110 =
0>
0?
#616
b0000000000010101 C
05
0)
b0000000000010101 +
0/
#621
b0000000000001110 @
0!
1B
1#
1$
b0000000000001110 E
1'
0(
1)
b0000000000010101 *
b01 -
0.
1/
00
b00 1
02
15
b10 8
19
1>
1?
#626
b0000000000010110 C
05
0)
b0000000000010110 +
0/
#631
1!
b0000000000010000 "
0B
0#
0$
b01 F
0'
1(
1)
b0000000000010110 *
b01 ,
1.
1/
10
12
b10 3
15
b01 7
09
b01 ;
b0000000000010000 =
0>
0?
#636
b0000000000010111 C
05
0)
b0000000000010111 +
0/
#641
b0000000000010000 @
0!
1B
1#
1$
b0000000000010000 E
1'
0(
1)
b0000000000010111 *
b10 -
0.
1/
00
b01 1
02
15
b11 8
19
1>
1?
#646
b0000000000011000 C
05
0)
b0000000000011000 +
0/
#651
1!
b0000000000010010 "
0B
0#
0$
b10 F
0'
1(
1)
b0000000000011000 *
b10 ,
1.
1/
10
12
b11 3
15
b10 7
09
b10 ;
b0000000000010010 =
0>
0?
#656
b0000000000011001 C
05
0)
b0000000000011001 +
0/
#661
b0000000000010010 @
0!
1B
1#
1$
b0000000000010010 E
1'
0(
1)
b0000000000011001 *
b11 -
0.
1/
00
b10 1
02
15
b00 8
19
1>
1?
#666
b0000000000011010 C
05
0)
b0000000000011010 +
0/
#671
1!
b0000000000010100 "
0B
0#
0$
b11 F
0'
1(
1)
b0000000000011010 *
b11 ,
1.
1/
10
12
b00 3
15
b11 7
09
b11 ;
b0000000000010100 =
0>
0?
#676
b0000000000011011 C
05
0)
b0000000000011011 +
0/
#681
b0000000000010100 @
0!
1B
1#
1$
b0000000000010100 E
1'
0(
1)
b0000000000011011 *
b00 -
0.
1/
00
b11 1
02
15
b01 8
19
1>
1?
#686
b0000000000011100 C
05
0)
b0000000000011100 +
0/
#691
1!
b0000000000010110 "
0B
0#
0$
b00 F
0'
1(
1)
b0000000000011100 *
b00 ,
1.
1/
10
12
b01 3
15
b00 7
09
b00 ;
b0000000000010110 =
0>
0?
#696
b0000000000011101 C
05
0)
b0000000000011101 +
0/
#701
b0000000000010110 @
0!
1B
1#
1$
b0000000000010110 E
1'
0(
1)
b0000000000011101 *
b01 -
0.
1/
00
b00 1
02
15
b10 8
19
1>
1?
#706
b0000000000011110 C
05
0)
b0000000000011110 +
0/
#711
1!
b0000000000011000 "
0B
0#
0$
b01 F
0'
1(
1)
b0000000000011110 *
b01 ,
1.
1/
10
12
b10 3
15
b01 7
09
b01 ;
b0000000000011000 =
0>
0?
#716
b0000000000011111 C
05
0)
b0000000000011111 +
0/
#721
b0000000000011000 @
0!
1B
1#
1$
b0000000000011000 E
1'
0(
1)
b0000000000011111 *
b10 -
0.
1/
00
b01 1
02
15
b11 8
19
1>
1?
#726
b0000000000100000 C
05
0)
b0000000000100000 +
0/
#731
1!
b0000000000011010 "
0B
0#
0$
b10 F
0'
1(
1)
b0000000000100000 *
b10 ,
1.
1/
10
12
b11 3
15
b10 7
09
b10 ;
b0000000000011010 =
0>
0?
#736
b0000000000100001 C
05
0)
b0000000000100001 +
0/
#741
b0000000000011010 @
0!
1B
1#
1$
b0000000000011010 E
1'
0(
1)
b0000000000100001 *
b11 -
0.
1/
00
b10 1
02
15
b00 8
19
1>
1?
#746
b0000000000100010 C
05
0)
b0000000000100010 +
0/
#751
1!
b0000000000011100 "
0B
0#
0$
b11 F
0'
1(
1)
b0000000000100010 *
b11 ,
1.
1/
10
12
b00 3
15
b11 7
09
b11 ;
b0000000000011100 =
0>
0?
#756
b0000000000100011 C
05
0)
b0000000000100011 +
0/
#761
b0000000000011100 @
0!
1B
1#
1$
b0000000000011100 E
1'
0(
1)
b0000000000100011 *
b00 -
0.
1/
00
b11 1
02
15
b01 8
19
1>
1?
#766
b0000000000100100 C
05
0)
b0000000000100100 +
0/
#771
1!
b0000000000011110 "
0B
0#
0$
b00 F
0'
1(
1)
b0000000000100100 *
b00 ,
1.
1/
10
12
b01 3
15
b00 7
09
b00 ;
b0000000000011110 =
0>
0?
#776
b0000000000100101 C
05
0)
b0000000000100101 +
0/
#781
b0000000000011110 @
0!
1B
1#
1$
b0000000000011110 E
1'
0(
1)
b0000000000100101 *
b01 -
0.
1/
00
b00 1
02
15
b10 8
19
1>
1?
#786
b0000000000100110 C
05
0)
b0000000000100110 +
0/
#791
1!
b0000000000100000 "
0B
0#
0$
b01 F
0'
1(
1)
b0000000000100110 *
b01 ,
1.
1/
10
12
b10 3
15
b01 7
09
b01 ;
b0000000000100000 =
0>
0?
#796
b0000000000100111 C
05
0)
b0000000000100111 +
0/
#801
b0000000000100000 @
0!
1B
1#
1$
b0000000000100000 E
1'
0(
1)
b0000000000100111 *
b10 -
0.
1/
00
b01 1
02
15
b11 8
19
1>
1?
#806
b0000000000101000 C
05
0)
b0000000000101000 +
0/
#811
1!
b0000000000100010 "
0B
0#
0$
b10 F
0'
1(
1)
b0000000000101000 *
b10 ,
1.
1/
10
12
b11 3
15
b10 7
09
b10 ;
b0000000000100010 =
0>
0?
#816
b0000000000101001 C
05
0)
b0000000000101001 +
0/
#821
b0000000000100010 @
0!
1B
1#
1$
b0000000000100010 E
1'
0(
1)
b0000000000101001 *
b11 -
0.
1/
00
b10 1
02
15
b00 8
19
1>
1?
#826
b0000000000101010 C
05
0)
b0000000000101010 +
0/
#831
1!
b0000000000100100 "
0B
0#
0$
b11 F
0'
1(
1)
b0000000000101010 *
b11 ,
1.
1/
10
12
b00 3
15
b11 7
09
b11 ;
b0000000000100100 =
0>
0?
#836
b0000000000101011 C
05
0)
b0000000000101011 +
0/
#841
b0000000000100100 @
0!
1B
1#
1$
b0000000000100100 E
1'
0(
1)
b0000000000101011 *
b00 -
0.
1/
00
b11 1
02
15
b01 8
19
1>
1?
#846
b0000000000101100 C
05
0)
b0000000000101100 +
0/
#851
1!
b0000000000100110 "
0B
0#
0$
b00 F
0'
1(
1)
b0000000000101100 *
b00 ,
1.
1/
10
12
b01 3
15
b00 7
09
b00 ;
b0000000000100110 =
0>
0?
#856
b0000000000101101 C
05
0)
b0000000000101101 +
0/
#861
b0000000000100110 @
0!
1B
1#
1$
b0000000000100110 E
1'
0(
1)
b0000000000101101 *
b01 -
0.
1/
00
b00 1
02
15
b10 8
19
1>
1?
#866
b0000000000101110 C
05
0)
b0000000000101110 +
0/
#871
1!
b0000000000101000 "
0B
0#
0$
b01 F
0'
1(
1)
b0000000000101110 *
b01 ,
1.
1/
10
12
b10 3
15
b01 7
09
b01 ;
b0000000000101000 =
0>
0?
#876
b0000000000101111 C
05
0)
b0000000000101111 +
0/
#881
b0000000000101000 @
0!
1B
1#
1$
b0000000000101000 E
1'
0(
1)
b0000000000101111 *
b10 -
0.
1/
00
b01 1
02
15
b11 8
19
1>
1?
#886
b0000000000110000 C
05
0)
b0000000000110000 +
0/
#891
1!
b0000000000101010 "
0B
0#
0$
b10 F
0'
1(
1)
b0000000000110000 *
b10 ,
1.
1/
10
12
b11 3
15
b10 7
09
b10 ;
b0000000000101010 =
0>
0?
#896
b0000000000110001 C
05
0)
b0000000000110001 +
0/
#901
b0000000000101010 @
0!
1B
1#
1$
b0000000000101010 E
1'
0(
1)
b0000000000110001 *
b11 -
0.
1/
00
b10 1
02
15
b00 8
19
1>
1?
#906
b0000000000110010 C
05
0)
b0000000000110010 +
0/
#911
1!
b0000000000101100 "
0B
0#
0$
b11 F
0'
1(
1)
b0000000000110010 *
b11 ,
1.
1/
10
12
b00 3
15
b11 7
09
b11 ;
b0000000000101100 =
0>
0?
#916
b0000000000110011 C
05
0)
b0000000000110011 +
0/
#921
b0000000000101100 @
0!
1B
1#
1$
b0000000000101100 E
1'
0(
1)
b0000000000110011 *
b00 -
0.
1/
00
b11 1
02
15
b01 8
19
1>
1?
#926
b0000000000110100 C
05
0)
b0000000000110100 +
0/
#931
1!
b0000000000101110 "
0B
0#
0$
b00 F
0'
1(
1)
b0000000000110100 *
b00 ,
1.
1/
10
12
b01 3
15
b00 7
09
b00 ;
b0000000000101110 =
0>
0?
#936
b0000000000110101 C
05
0)
b0000000000110101 +
0/
#941
b0000000000101110 @
0!
1B
1#
1$
b0000000000101110 E
1'
0(
1)
b0000000000110101 *
b01 -
0.
1/
00
b00 1
02
15
b10 8
19
1>
1?
#946
b0000000000110110 C
05
0)
b0000000000110110 +
0/
#951
1!
b0000000000110000 "
0B
0#
0$
b01 F
0'
1(
1)
b0000000000110110 *
b01 ,
1.
1/
10
12
b10 3
15
b01 7
09
b01 ;
b0000000000110000 =
0>
0?
#956
b0000000000110111 C
05
0)
b0000000000110111 +
0/
#961
b0000000000110000 @
0!
1B
1#
1$
b0000000000110000 E
1'
0(
1)
b0000000000110111 *
b10 -
0.
1/
00
b01 1
02
15
b11 8
19
1>
1?
#966
b0000000000111000 C
05
0)
b0000000000111000 +
0/
#971
1!
b0000000000110010 "
0B
0#
0$
b10 F
0'
1(
1)
b0000000000111000 *
b10 ,
1.
1/
10
12
b11 3
15
b10 7
09
b10 ;
b0000000000110010 =
0>
0?
#976
b0000000000111001 C
05
0)
b0000000000111001 +
0/
#981
b0000000000110010 @
0!
1B
1#
1$
b0000000000110010 E
1'
0(
1)
b0000000000111001 *
b11 -
0.
1/
00
b10 1
02
15
b00 8
19
1>
1?
#986
b0000000000111010 C
05
0)
b0000000000111010 +
0/
#991
1!
b0000000000110100 "
0B
0#
0$
b11 F
0'
1(
1)
b0000000000111010 *
b11 ,
1.
1/
10
12
b00 3
15
b11 7
09
b11 ;
b0000000000110100 =
0>
0?
#996
b0000000000111011 C
05
0)
b0000000000111011 +
0/
#1001
b0000000000110100 @
0!
1B
1#
1$
b0000000000110100 E
1'
0(
1)
b0000000000111011 *
b00 -
0.
1/
00
b11 1
02
15
b01 8
19
1>
1?
#1006
b0000000000111100 C
05
0)
b0000000000111100 +
0/
#1011
1!
b0000000000110110 "
0B
0#
0$
b00 F
0'
1(
1)
b0000000000111100 *
b00 ,
1.
1/
10
12
b01 3
15
b00 7
09
b00 ;
b0000000000110110 =
0>
0?
#1016
b0000000000111101 C
05
0)
b0000000000111101 +
0/
#1021
b0000000000110110 @
0!
1B
1#
1$
b0000000000110110 E
1'
0(
1)
b0000000000111101 *
b01 -
0.
1/
00
b00 1
02
15
b10 8
19
1>
1?
#1026
b0000000000111110 C
05
0)
b0000000000111110 +
0/
#1031
1!
b0000000000111000 "
0B
0#
0$
b01 F
0'
1(
1)
b0000000000111110 *
b01 ,
1.
1/
10
12
b10 3
15
b01 7
09
b01 ;
b0000000000111000 =
0>
0?
#1036
b0000000000111111 C
05
0)
b0000000000111111 +
0/
#1041
b0000000000111000 @
0!
1B
1#
1$
b0000000000111000 E
1'
0(
1)
b0000000000111111 *
b10 -
0.
1/
00
b01 1
02
15
b11 8
19
1>
1?
#1046
b0000000001000000 C
05
0)
b0000000001000000 +
0/
#1051
1!
b0000000000111010 "
0B
0#
0$
b10 F
0'
1(
1)
b0000000001000000 *
b10 ,
1.
1/
10
12
b11 3
15
b10 7
09
b10 ;
b0000000000111010 =
0>
0?
#1056
b0000000001000001 C
05
0)
b0000000001000001 +
0/
#1061
b0000000000111010 @
0!
1B
1#
1$
b0000000000111010 E
1'
0(
1)
b0000000001000001 *
b11 -
0.
1/
00
b10 1
02
15
b00 8
19
1>
1?
#1066
b0000000001000010 C
05
0)
b0000000001000010 +
0/
#1071
1!
b0000000000111100 "
0B
0#
0$
b11 F
0'
1(
1)
b0000000001000010 *
b11 ,
1.
1/
10
12
b00 3
15
b11 7
09
b11 ;
b0000000000111100 =
0>
0?
#1076
b0000000001000011 C
05
0)
b0000000001000011 +
0/
#1081
b0000000000111100 @
0!
1B
1#
1$
b0000000000111100 E
1'
0(
1)
b0000000001000011 *
b00 -
0.
1/
00
b11 1
02
15
b01 8
19
1>
1?
#1086
b0000000001000100 C
05
0)
b0000000001000100 +
0/
#1091
1!
b0000000000111110 "
0B
0#
0$
b00 F
0'
1(
1)
b0000000001000100 *
b00 ,
1.
1/
10
12
b01 3
15
b00 7
09
b00 ;
b0000000000111110 =
0>
0?
#1096
b0000000001000101 C
05
0)
b0000000001000101 +
0/
#1101
b0000000000111110 @
0!
1B
1#
1$
b0000000000111110 E
1'
0(
1)
b0000000001000101 *
b01 -
0.
1/
00
b00 1
02
15
b10 8
19
1>
1?
#1106
b0000000001000110 C
05
0)
b0000000001000110 +
0/
#1111
1!
b0000000001000000 "
0B
0#
0$
b01 F
0'
1(
1)
b0000000001000110 *
b01 ,
1.
1/
10
12
b10 3
15
b01 7
09
b01 ;
b0000000001000000 =
0>
0?
#1116
b0000000001000111 C
05
0)
b0000000001000111 +
0/
#1121
b0000000001000000 @
0!
1B
1#
1$
b0000000001000000 E
1'
0(
1)
b0000000001000111 *
b10 -
0.
1/
00
b01 1
02
15
b11 8
19
1>
1?
#1126
b0000000001001000 C
05
0)
b0000000001001000 +
0/
#1131
1!
b0000000001000010 "
0B
0#
0$
b10 F
0'
1(
1)
b0000000001001000 *
b10 ,
1.
1/
10
12
b11 3
15
b10 7
09
b10 ;
b0000000001000010 =
0>
0?
#1136
b0000000001001001 C
05
0)
b0000000001001001 +
0/
#1141
b0000000001000010 @
0!
1B
1#
1$
b0000000001000010 E
1'
0(
1)
b0000000001001001 *
b11 -
0.
1/
00
b10 1
02
15
b00 8
19
1>
1?
#1146
b0000000001001010 C
05
0)
b0000000001001010 +
0/
#1151
1!
b0000000001000100 "
0B
0#
0$
b11 F
0'
1(
1)
b0000000001001010 *
b11 ,
1.
1/
10
12
b00 3
15
b11 7
09
b11 ;
b0000000001000100 =
0>
0?
#1156
b0000000001001011 C
05
0)
b0000000001001011 +
0/
#1161
b0000000001000100 @
0!
1B
1#
1$
b0000000001000100 E
1'
0(
1)
b0000000001001011 *
b00 -
0.
1/
00
b11 1
02
15
b01 8
19
1>
1?
#1166
b0000000001001100 C
05
0)
b0000000001001100 +
0/
#1171
1!
b0000000001000110 "
0B
0#
0$
b00 F
0'
1(
1)
b0000000001001100 *
b00 ,
1.
1/
10
12
b01 3
15
b00 7
09
b00 ;
b0000000001000110 =
0>
0?
#1176
b0000000001001101 C
05
0)
b0000000001001101 +
0/
#1181
b0000000001000110 @
0!
1B
1#
1$
b0000000001000110 E
1'
0(
1)
b0000000001001101 *
b01 -
0.
1/
00
b00 1
02
15
b10 8
19
1>
1?
#1186
b0000000001001110 C
05
0)
b0000000001001110 +
0/
#1191
1!
b0000000001001000 "
0B
0#
0$
b01 F
0'
1(
1)
b0000000001001110 *
b01 ,
1.
1/
10
12
b10 3
15
b01 7
09
b01 ;
b0000000001001000 =
0>
0?
#1196
b0000000001001111 C
05
0)
b0000000001001111 +
0/
#1201
b0000000001001000 @
0!
1B
1#
1$
b0000000001001000 E
1'
0(
1)
b0000000001001111 *
b10 -
0.
1/
00
b01 1
02
15
b11 8
19
1>
1?
#1206
b0000000001010000 C
05
0)
b0000000001010000 +
0/
#1211
1!
b0000000001001010 "
0B
0#
0$
b10 F
0'
1(
1)
b0000000001010000 *
b10 ,
1.
1/
10
12
b11 3
15
b10 7
09
b10 ;
b0000000001001010 =
0>
0?
#1216
b0000000001010001 C
05
0)
b0000000001010001 +
0/
#1221
b0000000001001010 @
0!
1B
1#
1$
b0000000001001010 E
1'
0(
1)
b0000000001010001 *
b11 -
0.
1/
00
b10 1
02
15
b00 8
19
1>
1?
#1226
b0000000001010010 C
05
0)
b0000000001010010 +
0/
#1231
1!
b0000000001001100 "
0B
0#
0$
b11 F
0'
1(
1)
b0000000001010010 *
b11 ,
1.
1/
10
12
b00 3
15
b11 7
09
b11 ;
b0000000001001100 =
0>
0?
#1236
b0000000001010011 C
05
0)
b0000000001010011 +
0/
#1241
b0000000001001100 @
0!
1B
1#
1$
b0000000001001100 E
1'
0(
1)
b0000000001010011 *
b00 -
0.
1/
00
b11 1
02
15
b01 8
19
1>
1?
#1246
b0000000001010100 C
05
0)
b0000000001010100 +
0/
#1251
1!
b0000000001001110 "
0B
0#
0$
b00 F
0'
1(
1)
b0000000001010100 *
b00 ,
1.
1/
10
12
b01 3
15
b00 7
09
b00 ;
b0000000001001110 =
0>
0?
#1256
b0000000001010101 C
05
0)
b0000000001010101 +
0/
#1261
b0000000001001110 @
0!
1B
1#
1$
b0000000001001110 E
1'
0(
1)
b0000000001010101 *
b01 -
0.
1/
00
b00 1
02
15
b10 8
19
1>
1?
#1266
b0000000001010110 C
05
0)
b0000000001010110 +
0/
#1271
1!
b0000000001010000 "
0B
0#
0$
b01 F
0'
1(
1)
b0000000001010110 *
b01 ,
1.
1/
10
12
b10 3
15
b01 7
09
b01 ;
b0000000001010000 =
0>
0?
#1276
b0000000001010111 C
05
0)
b0000000001010111 +
0/
#1281
b0000000001010000 @
0!
1B
1#
1$
b0000000001010000 E
1'
0(
1)
b0000000001010111 *
b10 -
0.
1/
00
b01 1
02
15
b11 8
19
1>
1?
#1286
b0000000001011000 C
05
0)
b0000000001011000 +
0/
#1291
1!
b0000000001010010 "
0B
0#
0$
b10 F
0'
1(
1)
b0000000001011000 *
b10 ,
1.
1/
10
12
b11 3
15
b10 7
09
b10 ;
b0000000001010010 =
0>
0?
#1296
b0000000001011001 C
05
0)
b0000000001011001 +
0/
#1301
b0000000001010010 @
0!
1B
1#
1$
b0000000001010010 E
1'
0(
1)
b0000000001011001 *
b11 -
0.
1/
00
b10 1
02
15
b00 8
19
1>
1?
#1306
b0000000001011010 C
05
0)
b0000000001011010 +
0/
#1311
1!
b0000000001010100 "
0B
0#
0$
b11 F
0'
1(
1)
b0000000001011010 *
b11 ,
1.
1/
10
12
b00 3
15
b11 7
09
b11 ;
b0000000001010100 =
0>
0?
#1316
b0000000001011011 C
05
0)
b0000000001011011 +
0/
#1321
b0000000001010100 @
0!
1B
1#
1$
b0000000001010100 E
1'
0(
1)
b0000000001011011 *
b00 -
0.
1/
00
b11 1
02
15
b01 8
19
1>
1?
#1326
b0000000001011100 C
05
0)
b0000000001011100 +
0/
#1331
1!
b0000000001010110 "
0B
0#
0$
b00 F
0'
1(
1)
b0000000001011100 *
b00 ,
1.
1/
10
12
b01 3
15
b00 7
09
b00 ;
b0000000001010110 =
0>
0?
#1336
b0000000001011101 C
05
0)
b0000000001011101 +
0/
#1341
b0000000001010110 @
0!
1B
1#
1$
b0000000001010110 E
1'
0(
1)
b0000000001011101 *
b01 -
0.
1/
00
b00 1
02
15
b10 8
19
1>
1?
#1346
b0000000001011110 C
05
0)
b0000000001011110 +
0/
#1351
1!
b0000000001011000 "
0B
0#
0$
b01 F
0'
1(
1)
b0000000001011110 *
b01 ,
1.
1/
10
12
b10 3
15
b01 7
09
b01 ;
b0000000001011000 =
0>
0?
