test_run_dir/Flasher_should_pass/Flasher.vcd
$date
2026-01-09T09:38+0000
$end
$version
0.2
$end
$comment

$end
$timescale 1ns  $end
$scope module Flasher $end
 $var wire 1 ! timerSelect $end
 $var wire 1 " clock $end
 $var wire 3 # timerReg $end
 $var wire 1 $ light $end
 $var wire 1 % reset $end
 $var wire 1 & timerDone $end
 $var wire 3 ' stateReg $end
 $var wire 1 ( io_light $end
 $var wire 1 ) io_start $end
 $var wire 1 * timerLoad $end
 $var wire 1 + start $end
$upscope $end
$enddefinitions $end
$dumpvars
b000 '
0!
0"
b000 #
0$
0%
0&
0(
0)
0*
0+
$end
#0
1!
1%
1&
1*
#1
1"
#6
0"
0%
#11
1"
b101 #
0&
#16
0"
#21
1"
#26
0"
1)
1+
#31
0!
1"
1$
b001 '
1(
0*
#36
0"
0)
0+
#41
1"
b100 #
#46
0"
#51
1"
b011 #
#56
0"
#61
1"
b010 #
#66
0"
#71
1"
b001 #
#76
0"
#81
1"
b000 #
1&
1*
#86
0"
#91
1!
1"
b011 #
0$
0&
b010 '
0(
0*
#96
0"
#101
1"
b010 #
#106
0"
#111
1"
b001 #
#116
0"
#121
1"
b000 #
1&
1*
#126
0"
#131
0!
1"
b101 #
1$
0&
b011 '
1(
0*
#136
0"
#141
1"
b100 #
#146
0"
#151
1"
b011 #
#156
0"
#161
1"
b010 #
#166
0"
#171
1"
b001 #
#176
0"
#181
1"
b000 #
1&
1*
#186
0"
#191
1!
1"
b011 #
0$
0&
b100 '
0(
0*
#196
0"
#201
1"
b010 #
#206
0"
#211
1"
b001 #
#216
0"
#221
1"
b000 #
1&
1*
#226
0"
#231
0!
1"
b101 #
1$
0&
b101 '
1(
0*
#236
0"
#241
1"
b100 #
#246
0"
#251
1"
b011 #
#256
0"
#261
1"
b010 #
#266
0"
#271
1"
b001 #
#276
0"
#281
1"
b000 #
1&
1*
#286
0"
#291
1!
1"
b011 #
0$
0&
b000 '
0(
#296
0"
#301
1"
b101 #
