test_run_dir/RegFifo_should_pass/RegFifo.vcd
$date
2026-01-09T09:38+0000
$end
$version
0.2
$end
$comment

$end
$timescale 1ns  $end
$scope module RegFifo $end
 $var wire 1 ! fullReg $end
 $var wire 16 " memReg_0 $end
 $var wire 16 # memReg_1 $end
 $var wire 16 $ memReg_2 $end
 $var wire 16 % memReg_3 $end
 $var wire 2 & readPtr $end
 $var wire 1 ' reset $end
 $var wire 1 ( doWrite $end
 $var wire 1 ) io_deq_valid $end
 $var wire 1 * io_enq_valid $end
 $var wire 2 + writePtr $end
 $var wire 1 , incrWrite $end
 $var wire 1 - io_enq_ready $end
 $var wire 1 . emptyReg $end
 $var wire 1 / clock $end
 $var wire 1 0 incrRead $end
 $var wire 2 1 nextWrite $end
 $var wire 2 2 nextRead $end
 $var wire 1 3 io_deq_ready $end
 $var wire 16 4 io_deq_bits $end
 $var wire 2 5 op $end
 $var wire 16 6 io_enq_bits $end
$upscope $end
$enddefinitions $end
$dumpvars
00
03
b0000000000000000 %
b0000000000000000 $
b0000000000000000 #
b0000000000000000 "
b00 1
b00 5
b00 2
0!
b00 &
b0000000000000000 4
b00 +
0'
0(
0)
0*
b0000000000000000 6
0,
0-
0.
0/
$end
#0
b01 1
b01 2
1'
1)
1-
#1
0)
1.
1/
#6
b0000000010101011 6
0'
0/
#11
1/
#16
b10 5
b0000000100100011 6
1(
1*
1,
0/
#21
b10 1
b0000000100100011 "
b0000000100100011 4
1)
b01 +
0.
1/
#26
b00 5
b0000000010101011 6
0(
0*
0,
0/
#31
1/
#36
0/
#41
1/
#46
0/
#51
1/
#56
0/
#61
1/
#66
0/
#71
1/
#76
0/
#81
1/
#86
0/
#91
1/
#96
0/
#101
1/
#106
0/
#111
1/
#116
0/
#121
1/
#126
0/
#131
1/
#136
0/
#141
1/
#146
10
13
b01 5
0/
#151
00
b10 2
b0000000000000000 4
b01 &
0)
1.
1/
#156
03
b00 5
0/
#161
1/
#166
b10 5
b0000000000000001 6
1(
1*
1,
0/
#171
b11 1
b0000000000000001 #
b0000000000000001 4
1)
b10 +
0.
1/
#176
b0000000000000010 6
0/
#181
b00 1
b0000000000000010 $
b11 +
1/
#186
b0000000000000011 6
0/
#191
b01 1
b0000000000000011 %
b00 +
1/
#196
b0000000000000100 6
0/
#201
1!
b10 1
b0000000000000100 "
0(
b01 +
0,
0-
1/
#206
b0000000000000101 6
0/
#211
1/
#216
0/
#221
1/
#226
0/
#231
1/
#236
0/
#241
1/
#246
0/
#251
1/
#256
0/
#261
1/
#266
0/
#271
1/
#276
0/
#281
1/
#286
10
13
b01 5
0*
0/
#291
0!
b11 2
b0000000000000010 4
b10 &
1-
1/
#296
0/
#301
b00 2
b0000000000000011 4
b11 &
1/
#306
0/
#311
b01 2
b0000000000000100 4
b00 &
1/
#316
0/
#321
00
b10 2
b0000000000000001 4
b01 &
0)
1.
1/
#326
0/
#331
1/
#336
0/
#341
1/
#346
0/
#351
1/
#356
0/
#361
1/
#366
0/
#371
1/
#376
0/
#381
1/
#386
0/
#391
1/
#396
0/
#401
1/
#406
b11 5
b0000000000000000 6
1(
1*
1,
0/
#411
10
b11 1
b0000000000000000 #
b0000000000000000 4
1)
b10 +
0.
1/
#416
b0000000000000001 6
0/
#421
b00 1
b11 2
b0000000000000001 $
b0000000000000001 4
b10 &
b11 +
1/
#426
b0000000000000010 6
0/
#431
b01 1
b00 2
b0000000000000010 4
b0000000000000010 %
b11 &
b00 +
1/
#436
b0000000000000011 6
0/
#441
b10 1
b0000000000000011 "
b01 2
b0000000000000011 4
b00 &
b01 +
1/
#446
b0000000000000100 6
0/
#451
b11 1
b10 2
b0000000000000100 #
b0000000000000100 4
b01 &
b10 +
1/
#456
b0000000000000101 6
0/
#461
b00 1
b11 2
b0000000000000101 $
b0000000000000101 4
b10 &
b11 +
1/
#466
b0000000000000110 6
0/
#471
b01 1
b00 2
b0000000000000110 4
b0000000000000110 %
b11 &
b00 +
1/
#476
b0000000000000111 6
0/
#481
b10 1
b0000000000000111 "
b01 2
b0000000000000111 4
b00 &
b01 +
1/
#486
b0000000000001000 6
0/
#491
b11 1
b10 2
b0000000000001000 #
b0000000000001000 4
b01 &
b10 +
1/
#496
b0000000000001001 6
0/
#501
b00 1
b11 2
b0000000000001001 $
b0000000000001001 4
b10 &
b11 +
1/
#506
b0000000000001010 6
0/
#511
b01 1
b00 2
b0000000000001010 4
b0000000000001010 %
b11 &
b00 +
1/
#516
b0000000000001011 6
0/
#521
b10 1
b0000000000001011 "
b01 2
b0000000000001011 4
b00 &
b01 +
1/
#526
b0000000000001100 6
0/
#531
b11 1
b10 2
b0000000000001100 #
b0000000000001100 4
b01 &
b10 +
1/
#536
b0000000000001101 6
0/
#541
b00 1
b11 2
b0000000000001101 $
b0000000000001101 4
b10 &
b11 +
1/
#546
b0000000000001110 6
0/
#551
b01 1
b00 2
b0000000000001110 4
b0000000000001110 %
b11 &
b00 +
1/
#556
b0000000000001111 6
0/
#561
b10 1
b0000000000001111 "
b01 2
b0000000000001111 4
b00 &
b01 +
1/
#566
b0000000000010000 6
0/
#571
b11 1
b10 2
b0000000000010000 #
b0000000000010000 4
b01 &
b10 +
1/
#576
b0000000000010001 6
0/
#581
b00 1
b11 2
b0000000000010001 $
b0000000000010001 4
b10 &
b11 +
1/
#586
b0000000000010010 6
0/
#591
b01 1
b00 2
b0000000000010010 4
b0000000000010010 %
b11 &
b00 +
1/
#596
b0000000000010011 6
0/
#601
b10 1
b0000000000010011 "
b01 2
b0000000000010011 4
b00 &
b01 +
1/
#606
b0000000000010100 6
0/
#611
b11 1
b10 2
b0000000000010100 #
b0000000000010100 4
b01 &
b10 +
1/
#616
b0000000000010101 6
0/
#621
b00 1
b11 2
b0000000000010101 $
b0000000000010101 4
b10 &
b11 +
1/
#626
b0000000000010110 6
0/
#631
b01 1
b00 2
b0000000000010110 4
b0000000000010110 %
b11 &
b00 +
1/
#636
b0000000000010111 6
0/
#641
b10 1
b0000000000010111 "
b01 2
b0000000000010111 4
b00 &
b01 +
1/
#646
b0000000000011000 6
0/
#651
b11 1
b10 2
b0000000000011000 #
b0000000000011000 4
b01 &
b10 +
1/
#656
b0000000000011001 6
0/
#661
b00 1
b11 2
b0000000000011001 $
b0000000000011001 4
b10 &
b11 +
1/
#666
b0000000000011010 6
0/
#671
b01 1
b00 2
b0000000000011010 4
b0000000000011010 %
b11 &
b00 +
1/
#676
b0000000000011011 6
0/
#681
b10 1
b0000000000011011 "
b01 2
b0000000000011011 4
b00 &
b01 +
1/
#686
b0000000000011100 6
0/
#691
b11 1
b10 2
b0000000000011100 #
b0000000000011100 4
b01 &
b10 +
1/
#696
b0000000000011101 6
0/
#701
b00 1
b11 2
b0000000000011101 $
b0000000000011101 4
b10 &
b11 +
1/
#706
b0000000000011110 6
0/
#711
b01 1
b00 2
b0000000000011110 4
b0000000000011110 %
b11 &
b00 +
1/
#716
b0000000000011111 6
0/
#721
b10 1
b0000000000011111 "
b01 2
b0000000000011111 4
b00 &
b01 +
1/
#726
b0000000000100000 6
0/
#731
b11 1
b10 2
b0000000000100000 #
b0000000000100000 4
b01 &
b10 +
1/
#736
b0000000000100001 6
0/
#741
b00 1
b11 2
b0000000000100001 $
b0000000000100001 4
b10 &
b11 +
1/
#746
b0000000000100010 6
0/
#751
b01 1
b00 2
b0000000000100010 4
b0000000000100010 %
b11 &
b00 +
1/
#756
b0000000000100011 6
0/
#761
b10 1
b0000000000100011 "
b01 2
b0000000000100011 4
b00 &
b01 +
1/
#766
b0000000000100100 6
0/
#771
b11 1
b10 2
b0000000000100100 #
b0000000000100100 4
b01 &
b10 +
1/
#776
b0000000000100101 6
0/
#781
b00 1
b11 2
b0000000000100101 $
b0000000000100101 4
b10 &
b11 +
1/
#786
b0000000000100110 6
0/
#791
b01 1
b00 2
b0000000000100110 4
b0000000000100110 %
b11 &
b00 +
1/
#796
b0000000000100111 6
0/
#801
b10 1
b0000000000100111 "
b01 2
b0000000000100111 4
b00 &
b01 +
1/
#806
b0000000000101000 6
0/
#811
b11 1
b10 2
b0000000000101000 #
b0000000000101000 4
b01 &
b10 +
1/
#816
b0000000000101001 6
0/
#821
b00 1
b11 2
b0000000000101001 $
b0000000000101001 4
b10 &
b11 +
1/
#826
b0000000000101010 6
0/
#831
b01 1
b00 2
b0000000000101010 4
b0000000000101010 %
b11 &
b00 +
1/
#836
b0000000000101011 6
0/
#841
b10 1
b0000000000101011 "
b01 2
b0000000000101011 4
b00 &
b01 +
1/
#846
b0000000000101100 6
0/
#851
b11 1
b10 2
b0000000000101100 #
b0000000000101100 4
b01 &
b10 +
1/
#856
b0000000000101101 6
0/
#861
b00 1
b11 2
b0000000000101101 $
b0000000000101101 4
b10 &
b11 +
1/
#866
b0000000000101110 6
0/
#871
b01 1
b00 2
b0000000000101110 4
b0000000000101110 %
b11 &
b00 +
1/
#876
b0000000000101111 6
0/
#881
b10 1
b0000000000101111 "
b01 2
b0000000000101111 4
b00 &
b01 +
1/
#886
b0000000000110000 6
0/
#891
b11 1
b10 2
b0000000000110000 #
b0000000000110000 4
b01 &
b10 +
1/
#896
b0000000000110001 6
0/
#901
b00 1
b11 2
b0000000000110001 $
b0000000000110001 4
b10 &
b11 +
1/
#906
b0000000000110010 6
0/
#911
b01 1
b00 2
b0000000000110010 4
b0000000000110010 %
b11 &
b00 +
1/
#916
b0000000000110011 6
0/
#921
b10 1
b0000000000110011 "
b01 2
b0000000000110011 4
b00 &
b01 +
1/
#926
b0000000000110100 6
0/
#931
b11 1
b10 2
b0000000000110100 #
b0000000000110100 4
b01 &
b10 +
1/
#936
b0000000000110101 6
0/
#941
b00 1
b11 2
b0000000000110101 $
b0000000000110101 4
b10 &
b11 +
1/
#946
b0000000000110110 6
0/
#951
b01 1
b00 2
b0000000000110110 4
b0000000000110110 %
b11 &
b00 +
1/
#956
b0000000000110111 6
0/
#961
b10 1
b0000000000110111 "
b01 2
b0000000000110111 4
b00 &
b01 +
1/
#966
b0000000000111000 6
0/
#971
b11 1
b10 2
b0000000000111000 #
b0000000000111000 4
b01 &
b10 +
1/
#976
b0000000000111001 6
0/
#981
b00 1
b11 2
b0000000000111001 $
b0000000000111001 4
b10 &
b11 +
1/
#986
b0000000000111010 6
0/
#991
b01 1
b00 2
b0000000000111010 4
b0000000000111010 %
b11 &
b00 +
1/
#996
b0000000000111011 6
0/
#1001
b10 1
b0000000000111011 "
b01 2
b0000000000111011 4
b00 &
b01 +
1/
#1006
b0000000000111100 6
0/
#1011
b11 1
b10 2
b0000000000111100 #
b0000000000111100 4
b01 &
b10 +
1/
#1016
b0000000000111101 6
0/
#1021
b00 1
b11 2
b0000000000111101 $
b0000000000111101 4
b10 &
b11 +
1/
#1026
b0000000000111110 6
0/
#1031
b01 1
b00 2
b0000000000111110 4
b0000000000111110 %
b11 &
b00 +
1/
#1036
b0000000000111111 6
0/
#1041
b10 1
b0000000000111111 "
b01 2
b0000000000111111 4
b00 &
b01 +
1/
#1046
b0000000001000000 6
0/
#1051
b11 1
b10 2
b0000000001000000 #
b0000000001000000 4
b01 &
b10 +
1/
#1056
b0000000001000001 6
0/
#1061
b00 1
b11 2
b0000000001000001 $
b0000000001000001 4
b10 &
b11 +
1/
#1066
b0000000001000010 6
0/
#1071
b01 1
b00 2
b0000000001000010 4
b0000000001000010 %
b11 &
b00 +
1/
#1076
b0000000001000011 6
0/
#1081
b10 1
b0000000001000011 "
b01 2
b0000000001000011 4
b00 &
b01 +
1/
#1086
b0000000001000100 6
0/
#1091
b11 1
b10 2
b0000000001000100 #
b0000000001000100 4
b01 &
b10 +
1/
#1096
b0000000001000101 6
0/
#1101
b00 1
b11 2
b0000000001000101 $
b0000000001000101 4
b10 &
b11 +
1/
#1106
b0000000001000110 6
0/
#1111
b01 1
b00 2
b0000000001000110 4
b0000000001000110 %
b11 &
b00 +
1/
#1116
b0000000001000111 6
0/
#1121
b10 1
b0000000001000111 "
b01 2
b0000000001000111 4
b00 &
b01 +
1/
#1126
b0000000001001000 6
0/
#1131
b11 1
b10 2
b0000000001001000 #
b0000000001001000 4
b01 &
b10 +
1/
#1136
b0000000001001001 6
0/
#1141
b00 1
b11 2
b0000000001001001 $
b0000000001001001 4
b10 &
b11 +
1/
#1146
b0000000001001010 6
0/
#1151
b01 1
b00 2
b0000000001001010 4
b0000000001001010 %
b11 &
b00 +
1/
#1156
b0000000001001011 6
0/
#1161
b10 1
b0000000001001011 "
b01 2
b0000000001001011 4
b00 &
b01 +
1/
#1166
b0000000001001100 6
0/
#1171
b11 1
b10 2
b0000000001001100 #
b0000000001001100 4
b01 &
b10 +
1/
#1176
b0000000001001101 6
0/
#1181
b00 1
b11 2
b0000000001001101 $
b0000000001001101 4
b10 &
b11 +
1/
#1186
b0000000001001110 6
0/
#1191
b01 1
b00 2
b0000000001001110 4
b0000000001001110 %
b11 &
b00 +
1/
#1196
b0000000001001111 6
0/
#1201
b10 1
b0000000001001111 "
b01 2
b0000000001001111 4
b00 &
b01 +
1/
#1206
b0000000001010000 6
0/
#1211
b11 1
b10 2
b0000000001010000 #
b0000000001010000 4
b01 &
b10 +
1/
#1216
b0000000001010001 6
0/
#1221
b00 1
b11 2
b0000000001010001 $
b0000000001010001 4
b10 &
b11 +
1/
#1226
b0000000001010010 6
0/
#1231
b01 1
b00 2
b0000000001010010 4
b0000000001010010 %
b11 &
b00 +
1/
#1236
b0000000001010011 6
0/
#1241
b10 1
b0000000001010011 "
b01 2
b0000000001010011 4
b00 &
b01 +
1/
#1246
b0000000001010100 6
0/
#1251
b11 1
b10 2
b0000000001010100 #
b0000000001010100 4
b01 &
b10 +
1/
#1256
b0000000001010101 6
0/
#1261
b00 1
b11 2
b0000000001010101 $
b0000000001010101 4
b10 &
b11 +
1/
#1266
b0000000001010110 6
0/
#1271
b01 1
b00 2
b0000000001010110 4
b0000000001010110 %
b11 &
b00 +
1/
#1276
b0000000001010111 6
0/
#1281
b10 1
b0000000001010111 "
b01 2
b0000000001010111 4
b00 &
b01 +
1/
#1286
b0000000001011000 6
0/
#1291
b11 1
b10 2
b0000000001011000 #
b0000000001011000 4
b01 &
b10 +
1/
#1296
b0000000001011001 6
0/
#1301
b00 1
b11 2
b0000000001011001 $
b0000000001011001 4
b10 &
b11 +
1/
#1306
b0000000001011010 6
0/
#1311
b01 1
b00 2
b0000000001011010 4
b0000000001011010 %
b11 &
b00 +
1/
#1316
b0000000001011011 6
0/
#1321
b10 1
b0000000001011011 "
b01 2
b0000000001011011 4
b00 &
b01 +
1/
#1326
b0000000001011100 6
0/
#1331
b11 1
b10 2
b0000000001011100 #
b0000000001011100 4
b01 &
b10 +
1/
#1336
b0000000001011101 6
0/
#1341
b00 1
b11 2
b0000000001011101 $
b0000000001011101 4
b10 &
b11 +
1/
#1346
b0000000001011110 6
0/
#1351
b01 1
b00 2
b0000000001011110 4
b0000000001011110 %
b11 &
b00 +
1/
#1356
b0000000001011111 6
0/
#1361
b10 1
b0000000001011111 "
b01 2
b0000000001011111 4
b00 &
b01 +
1/
#1366
b0000000001100000 6
0/
#1371
b11 1
b10 2
b0000000001100000 #
b0000000001100000 4
b01 &
b10 +
1/
#1376
b0000000001100001 6
0/
#1381
b00 1
b11 2
b0000000001100001 $
b0000000001100001 4
b10 &
b11 +
1/
#1386
b0000000001100010 6
0/
#1391
b01 1
b00 2
b0000000001100010 4
b0000000001100010 %
b11 &
b00 +
1/
#1396
b0000000001100011 6
0/
#1401
b10 1
b0000000001100011 "
b01 2
b0000000001100011 4
b00 &
b01 +
1/
#1406
03
b0000000000000000 6
0*
0/
