test_run_dir/Clock_domains_should_pass/ClockDomains.vcd
$date
2026-01-09T09:38+0000
$end
$version
0.2
$end
$comment

$end
$timescale 1ns  $end
$scope module ClockDomains $end
 $var wire 8 " io_errCnt $end
 $var wire 1 ' clock $end
 $var wire 1 ) reset $end
 $var wire 1 / d $end
 $var wire 1 4 s $end
  $scope module s $end
   $var wire 1 # falling $end
   $var wire 1 * clock $end
   $var wire 1 - falling_REG $end
   $var wire 1 . valid $end
   $var wire 32 0 io_c_data $end
   $var wire 2 1 xReg $end
   $var wire 1 3 io_c_valid $end
   $var wire 1 5 reset $end
   $var wire 32 7 cntReg $end
  $upscope $end
  $scope module d $end
   $var wire 32 ! expectedCntReg $end
   $var wire 1 $ clock $end
   $var wire 1 % rising_REG $end
   $var wire 1 & reset $end
   $var wire 32 ( io_c_data $end
   $var wire 1 + rising $end
   $var wire 8 , errCntReg $end
   $var wire 8 2 io_errorCnt $end
   $var wire 1 6 io_c_valid $end
  $upscope $end
$upscope $end
$enddefinitions $end
$dumpvars
03
b00000000 ,
04
05
06
b00000000000000000000000000000000 (
b00 1
b00000000 "
b00000000000000000000000000000000 !
0#
0$
b00000000000000000000000000000000 7
0%
0&
0'
0)
b00000000 2
0*
0+
0-
0.
0/
b00000000000000000000000000000000 0
$end
#0
15
1&
1)
#1
1$
1'
1*
#6
0$
05
0&
0'
0)
0*
#11
b01 1
1$
1'
1*
#16
0$
0'
0*
#21
b10 1
1$
1'
1*
#26
0$
0'
0*
#31
b11 1
13
1$
16
1'
1*
1+
1.
#36
0$
0'
0*
#41
b00000000000000000000000000000001 !
b00 1
1$
1%
1'
1*
0+
1-
#46
0$
0'
0*
#51
b01 1
1#
03
1$
06
1'
1*
0.
#56
0$
0'
0*
#61
b00000000000000000000000000000001 0
b10 1
0#
1$
0%
1'
b00000000000000000000000000000001 7
b00000000000000000000000000000001 (
1*
0-
#66
0$
0'
0*
#71
b11 1
13
1$
16
1'
1*
1+
1.
#76
0$
0'
0*
#81
b00000000000000000000000000000010 !
b00 1
1$
1%
1'
1*
0+
1-
#86
0$
0'
0*
#91
b01 1
1#
03
1$
06
1'
1*
0.
#96
0$
0'
0*
#101
b00000000000000000000000000000010 0
b10 1
0#
1$
0%
1'
b00000000000000000000000000000010 7
b00000000000000000000000000000010 (
1*
0-
#106
0$
0'
0*
#111
b11 1
13
1$
16
1'
1*
1+
1.
#116
0$
0'
0*
#121
b00000000000000000000000000000011 !
b00 1
1$
1%
1'
1*
0+
1-
#126
0$
0'
0*
#131
b01 1
1#
03
1$
06
1'
1*
0.
#136
0$
0'
0*
#141
b00000000000000000000000000000011 0
b10 1
0#
1$
0%
1'
b00000000000000000000000000000011 7
b00000000000000000000000000000011 (
1*
0-
#146
0$
0'
0*
#151
b11 1
13
1$
16
1'
1*
1+
1.
#156
0$
0'
0*
#161
b00000000000000000000000000000100 !
b00 1
1$
1%
1'
1*
0+
1-
#166
0$
0'
0*
#171
b01 1
1#
03
1$
06
1'
1*
0.
#176
0$
0'
0*
#181
b00000000000000000000000000000100 0
b10 1
0#
1$
0%
1'
b00000000000000000000000000000100 7
b00000000000000000000000000000100 (
1*
0-
#186
0$
0'
0*
#191
b11 1
13
1$
16
1'
1*
1+
1.
#196
0$
0'
0*
#201
b00000000000000000000000000000101 !
b00 1
1$
1%
1'
1*
0+
1-
