test_run_dir/DoubleBufferFifo_should_pass/DoubleBufferFifo.vcd
$date
2026-01-09T09:38+0000
$end
$version
0.2
$end
$comment

$end
$timescale 1ns  $end
$scope module DoubleBufferFifo $end
 $var wire 1 ' reset $end
 $var wire 1 . io_deq_valid $end
 $var wire 1 / io_enq_valid $end
 $var wire 1 1 io_enq_ready $end
 $var wire 1 2 DoubleBuffer_1 $end
 $var wire 1 4 DoubleBuffer $end
 $var wire 1 7 clock $end
 $var wire 1 = io_deq_ready $end
 $var wire 16 > io_deq_bits $end
 $var wire 16 @ io_enq_bits $end
  $scope module DoubleBuffer_1 $end
   $var wire 1 " reset $end
   $var wire 1 # io_deq_valid $end
   $var wire 1 $ io_deq_ready $end
   $var wire 16 % shadowReg $end
   $var wire 1 * io_enq_valid $end
   $var wire 16 + io_deq_bits $end
   $var wire 16 , dataReg $end
   $var wire 2 0 stateReg $end
   $var wire 1 3 io_enq_ready $end
   $var wire 16 5 io_enq_bits $end
   $var wire 1 : clock $end
  $upscope $end
  $scope module DoubleBuffer $end
   $var wire 1 ! io_deq_ready $end
   $var wire 1 & io_deq_valid $end
   $var wire 1 ( io_enq_valid $end
   $var wire 16 ) io_deq_bits $end
   $var wire 2 - stateReg $end
   $var wire 16 6 io_enq_bits $end
   $var wire 16 8 shadowReg $end
   $var wire 1 9 io_enq_ready $end
   $var wire 16 ; dataReg $end
   $var wire 1 < reset $end
   $var wire 1 ? clock $end
  $upscope $end
$upscope $end
$enddefinitions $end
$dumpvars
01
02
03
b0000000000000000 %
04
07
b0000000000000000 )
09
b00 0
0:
0<
b0000000000000000 ,
0=
b0000000000000000 +
0?
b0000000000000000 5
b00 -
b0000000000000000 8
b0000000000000000 6
b0000000000000000 ;
b0000000000000000 @
b0000000000000000 >
0!
0"
0#
0$
0&
0'
0(
0*
0.
0/
$end
#0
1!
11
1"
13
1'
19
1<
#1
17
1:
1?
#6
b0000000010101011 @
0"
b0000000010101011 6
0'
07
0:
0<
0?
#11
17
1:
1?
#16
b0000000100100011 @
b0000000100100011 6
07
1(
0:
1/
0?
#21
b0000000100100011 5
1&
17
b0000000100100011 )
1*
1:
b0000000100100011 ;
b01 -
1?
#26
b0000000010101011 @
b0000000010101011 6
07
0(
0:
0/
0?
#31
1#
0&
0*
b0000000100100011 +
b0000000100100011 ,
b00 -
1.
b01 0
17
1:
b0000000100100011 >
1?
#36
07
0:
0?
#41
17
1:
1?
#46
07
0:
0?
#51
17
1:
1?
#56
07
0:
0?
#61
17
1:
1?
#66
07
0:
0?
#71
17
1:
1?
#76
07
0:
0?
#81
17
1:
1?
#86
07
0:
0?
#91
17
1:
1?
#96
07
0:
0?
#101
17
1:
1?
#106
07
0:
0?
#111
17
1:
1?
#116
07
0:
0?
#121
17
1:
1?
#126
07
0:
0?
#131
17
1:
1?
#136
07
0:
0?
#141
17
1:
1?
#146
1$
07
0:
1=
0?
#151
b00 0
0#
17
1:
0.
1?
#156
0$
07
0:
0=
0?
#161
17
1:
1?
#166
b0000000000000001 @
b0000000000000001 6
07
1(
0:
1/
0?
#171
b0000000000000001 5
1&
17
b0000000000000001 )
1*
1:
b0000000000000001 ;
b01 -
1?
#176
b0000000000000010 @
b0000000000000010 6
07
0:
0?
#181
1#
b0000000000000010 )
b0000000000000001 +
b0000000000000001 ,
1.
b01 0
b0000000000000010 5
17
1:
b0000000000000010 ;
b0000000000000001 >
1?
#186
b0000000000000011 @
b0000000000000011 6
07
0:
0?
#191
b10 0
0!
03
b0000000000000010 %
b0000000000000011 5
17
b0000000000000011 )
1:
b0000000000000011 ;
1?
#196
b0000000000000100 @
b0000000000000100 6
07
0:
0?
#201
01
17
b0000000000000100 8
09
1:
b10 -
1?
#206
b0000000000000101 @
b0000000000000101 6
07
0:
0?
#211
17
1:
1?
#216
07
0:
0?
#221
17
1:
1?
#226
07
0:
0?
#231
17
1:
1?
#236
07
0:
0?
#241
17
1:
1?
#246
07
0:
0?
#251
17
1:
1?
#256
07
0:
0?
#261
17
1:
1?
#266
07
0:
0?
#271
17
1:
1?
#276
07
0:
0?
#281
17
1:
1?
#286
1$
07
0(
0:
1=
0/
0?
#291
b01 0
1!
13
17
1:
b0000000000000010 +
b0000000000000010 ,
b0000000000000010 >
1?
#296
07
0:
0?
#301
b0000000000000100 )
b0000000000000011 +
b0000000000000011 ,
b01 -
11
b0000000000000100 5
17
19
1:
b0000000000000100 ;
b0000000000000011 >
1?
#306
07
0:
0?
#311
0&
17
0*
1:
b0000000000000100 +
b0000000000000100 ,
b00 -
b0000000000000100 >
1?
#316
07
0:
0?
#321
b00 0
0#
17
1:
0.
1?
#326
07
0:
0?
#331
17
1:
1?
#336
07
0:
0?
#341
17
1:
1?
#346
07
0:
0?
#351
17
1:
1?
#356
07
0:
0?
#361
17
1:
1?
#366
07
0:
0?
#371
17
1:
1?
#376
07
0:
0?
#381
17
1:
1?
#386
07
0:
0?
#391
17
1:
1?
#396
07
0:
0?
#401
17
1:
1?
#406
b0000000000000000 @
b0000000000000000 6
07
1(
0:
1/
0?
#411
b0000000000000000 5
1&
17
b0000000000000000 )
1*
1:
b0000000000000000 ;
b01 -
1?
#416
b0000000000000001 @
b0000000000000001 6
07
0:
0?
#421
1#
b0000000000000001 )
b0000000000000000 +
b0000000000000000 ,
1.
b01 0
b0000000000000001 5
17
1:
b0000000000000001 ;
b0000000000000000 >
1?
#426
b0000000000000010 @
b0000000000000010 6
07
0:
0?
#431
b0000000000000010 5
17
b0000000000000010 )
1:
b0000000000000001 +
b0000000000000010 ;
b0000000000000001 ,
b0000000000000001 >
1?
#436
b0000000000000011 @
b0000000000000011 6
07
0:
0?
#441
b0000000000000011 5
17
b0000000000000011 )
1:
b0000000000000010 +
b0000000000000011 ;
b0000000000000010 ,
b0000000000000010 >
1?
#446
b0000000000000100 @
b0000000000000100 6
07
0:
0?
#451
b0000000000000100 5
17
b0000000000000100 )
1:
b0000000000000011 +
b0000000000000100 ;
b0000000000000011 ,
b0000000000000011 >
1?
#456
b0000000000000101 @
b0000000000000101 6
07
0:
0?
#461
b0000000000000101 5
17
b0000000000000101 )
1:
b0000000000000100 +
b0000000000000101 ;
b0000000000000100 ,
b0000000000000100 >
1?
#466
b0000000000000110 @
b0000000000000110 6
07
0:
0?
#471
b0000000000000110 5
17
b0000000000000110 )
1:
b0000000000000101 +
b0000000000000110 ;
b0000000000000101 ,
b0000000000000101 >
1?
#476
b0000000000000111 @
b0000000000000111 6
07
0:
0?
#481
b0000000000000111 5
17
b0000000000000111 )
1:
b0000000000000110 +
b0000000000000111 ;
b0000000000000110 ,
b0000000000000110 >
1?
#486
b0000000000001000 @
b0000000000001000 6
07
0:
0?
#491
b0000000000001000 5
17
b0000000000001000 )
1:
b0000000000000111 +
b0000000000001000 ;
b0000000000000111 ,
b0000000000000111 >
1?
#496
b0000000000001001 @
b0000000000001001 6
07
0:
0?
#501
b0000000000001001 5
17
b0000000000001001 )
1:
b0000000000001000 +
b0000000000001001 ;
b0000000000001000 ,
b0000000000001000 >
1?
#506
b0000000000001010 @
b0000000000001010 6
07
0:
0?
#511
b0000000000001010 5
17
b0000000000001010 )
1:
b0000000000001001 +
b0000000000001010 ;
b0000000000001001 ,
b0000000000001001 >
1?
#516
b0000000000001011 @
b0000000000001011 6
07
0:
0?
#521
b0000000000001011 5
17
b0000000000001011 )
1:
b0000000000001010 +
b0000000000001011 ;
b0000000000001010 ,
b0000000000001010 >
1?
#526
b0000000000001100 @
b0000000000001100 6
07
0:
0?
#531
b0000000000001100 5
17
b0000000000001100 )
1:
b0000000000001011 +
b0000000000001100 ;
b0000000000001011 ,
b0000000000001011 >
1?
#536
b0000000000001101 @
b0000000000001101 6
07
0:
0?
#541
b0000000000001101 5
17
b0000000000001101 )
1:
b0000000000001100 +
b0000000000001101 ;
b0000000000001100 ,
b0000000000001100 >
1?
#546
b0000000000001110 @
b0000000000001110 6
07
0:
0?
#551
b0000000000001110 5
17
b0000000000001110 )
1:
b0000000000001101 +
b0000000000001110 ;
b0000000000001101 ,
b0000000000001101 >
1?
#556
b0000000000001111 @
b0000000000001111 6
07
0:
0?
#561
b0000000000001111 5
17
b0000000000001111 )
1:
b0000000000001110 +
b0000000000001111 ;
b0000000000001110 ,
b0000000000001110 >
1?
#566
b0000000000010000 @
b0000000000010000 6
07
0:
0?
#571
b0000000000010000 5
17
b0000000000010000 )
1:
b0000000000001111 +
b0000000000010000 ;
b0000000000001111 ,
b0000000000001111 >
1?
#576
b0000000000010001 @
b0000000000010001 6
07
0:
0?
#581
b0000000000010001 5
17
b0000000000010001 )
1:
b0000000000010000 +
b0000000000010001 ;
b0000000000010000 ,
b0000000000010000 >
1?
#586
b0000000000010010 @
b0000000000010010 6
07
0:
0?
#591
b0000000000010010 5
17
b0000000000010010 )
1:
b0000000000010001 +
b0000000000010010 ;
b0000000000010001 ,
b0000000000010001 >
1?
#596
b0000000000010011 @
b0000000000010011 6
07
0:
0?
#601
b0000000000010011 5
17
b0000000000010011 )
1:
b0000000000010010 +
b0000000000010011 ;
b0000000000010010 ,
b0000000000010010 >
1?
#606
b0000000000010100 @
b0000000000010100 6
07
0:
0?
#611
b0000000000010100 5
17
b0000000000010100 )
1:
b0000000000010011 +
b0000000000010100 ;
b0000000000010011 ,
b0000000000010011 >
1?
#616
b0000000000010101 @
b0000000000010101 6
07
0:
0?
#621
b0000000000010101 5
17
b0000000000010101 )
1:
b0000000000010100 +
b0000000000010101 ;
b0000000000010100 ,
b0000000000010100 >
1?
#626
b0000000000010110 @
b0000000000010110 6
07
0:
0?
#631
b0000000000010110 5
17
b0000000000010110 )
1:
b0000000000010101 +
b0000000000010110 ;
b0000000000010101 ,
b0000000000010101 >
1?
#636
b0000000000010111 @
b0000000000010111 6
07
0:
0?
#641
b0000000000010111 5
17
b0000000000010111 )
1:
b0000000000010110 +
b0000000000010111 ;
b0000000000010110 ,
b0000000000010110 >
1?
#646
b0000000000011000 @
b0000000000011000 6
07
0:
0?
#651
b0000000000011000 5
17
b0000000000011000 )
1:
b0000000000010111 +
b0000000000011000 ;
b0000000000010111 ,
b0000000000010111 >
1?
#656
b0000000000011001 @
b0000000000011001 6
07
0:
0?
#661
b0000000000011001 5
17
b0000000000011001 )
1:
b0000000000011000 +
b0000000000011001 ;
b0000000000011000 ,
b0000000000011000 >
1?
#666
b0000000000011010 @
b0000000000011010 6
07
0:
0?
#671
b0000000000011010 5
17
b0000000000011010 )
1:
b0000000000011001 +
b0000000000011010 ;
b0000000000011001 ,
b0000000000011001 >
1?
#676
b0000000000011011 @
b0000000000011011 6
07
0:
0?
#681
b0000000000011011 5
17
b0000000000011011 )
1:
b0000000000011010 +
b0000000000011011 ;
b0000000000011010 ,
b0000000000011010 >
1?
#686
b0000000000011100 @
b0000000000011100 6
07
0:
0?
#691
b0000000000011100 5
17
b0000000000011100 )
1:
b0000000000011011 +
b0000000000011100 ;
b0000000000011011 ,
b0000000000011011 >
1?
#696
b0000000000011101 @
b0000000000011101 6
07
0:
0?
#701
b0000000000011101 5
17
b0000000000011101 )
1:
b0000000000011100 +
b0000000000011101 ;
b0000000000011100 ,
b0000000000011100 >
1?
#706
b0000000000011110 @
b0000000000011110 6
07
0:
0?
#711
b0000000000011110 5
17
b0000000000011110 )
1:
b0000000000011101 +
b0000000000011110 ;
b0000000000011101 ,
b0000000000011101 >
1?
#716
b0000000000011111 @
b0000000000011111 6
07
0:
0?
#721
b0000000000011111 5
17
b0000000000011111 )
1:
b0000000000011110 +
b0000000000011111 ;
b0000000000011110 ,
b0000000000011110 >
1?
#726
b0000000000100000 @
b0000000000100000 6
07
0:
0?
#731
b0000000000100000 5
17
b0000000000100000 )
1:
b0000000000011111 +
b0000000000100000 ;
b0000000000011111 ,
b0000000000011111 >
1?
#736
b0000000000100001 @
b0000000000100001 6
07
0:
0?
#741
b0000000000100001 5
17
b0000000000100001 )
1:
b0000000000100000 +
b0000000000100001 ;
b0000000000100000 ,
b0000000000100000 >
1?
#746
b0000000000100010 @
b0000000000100010 6
07
0:
0?
#751
b0000000000100010 5
17
b0000000000100010 )
1:
b0000000000100001 +
b0000000000100010 ;
b0000000000100001 ,
b0000000000100001 >
1?
#756
b0000000000100011 @
b0000000000100011 6
07
0:
0?
#761
b0000000000100011 5
17
b0000000000100011 )
1:
b0000000000100010 +
b0000000000100011 ;
b0000000000100010 ,
b0000000000100010 >
1?
#766
b0000000000100100 @
b0000000000100100 6
07
0:
0?
#771
b0000000000100100 5
17
b0000000000100100 )
1:
b0000000000100011 +
b0000000000100100 ;
b0000000000100011 ,
b0000000000100011 >
1?
#776
b0000000000100101 @
b0000000000100101 6
07
0:
0?
#781
b0000000000100101 5
17
b0000000000100101 )
1:
b0000000000100100 +
b0000000000100101 ;
b0000000000100100 ,
b0000000000100100 >
1?
#786
b0000000000100110 @
b0000000000100110 6
07
0:
0?
#791
b0000000000100110 5
17
b0000000000100110 )
1:
b0000000000100101 +
b0000000000100110 ;
b0000000000100101 ,
b0000000000100101 >
1?
#796
b0000000000100111 @
b0000000000100111 6
07
0:
0?
#801
b0000000000100111 5
17
b0000000000100111 )
1:
b0000000000100110 +
b0000000000100111 ;
b0000000000100110 ,
b0000000000100110 >
1?
#806
b0000000000101000 @
b0000000000101000 6
07
0:
0?
#811
b0000000000101000 5
17
b0000000000101000 )
1:
b0000000000100111 +
b0000000000101000 ;
b0000000000100111 ,
b0000000000100111 >
1?
#816
b0000000000101001 @
b0000000000101001 6
07
0:
0?
#821
b0000000000101001 5
17
b0000000000101001 )
1:
b0000000000101000 +
b0000000000101001 ;
b0000000000101000 ,
b0000000000101000 >
1?
#826
b0000000000101010 @
b0000000000101010 6
07
0:
0?
#831
b0000000000101010 5
17
b0000000000101010 )
1:
b0000000000101001 +
b0000000000101010 ;
b0000000000101001 ,
b0000000000101001 >
1?
#836
b0000000000101011 @
b0000000000101011 6
07
0:
0?
#841
b0000000000101011 5
17
b0000000000101011 )
1:
b0000000000101010 +
b0000000000101011 ;
b0000000000101010 ,
b0000000000101010 >
1?
#846
b0000000000101100 @
b0000000000101100 6
07
0:
0?
#851
b0000000000101100 5
17
b0000000000101100 )
1:
b0000000000101011 +
b0000000000101100 ;
b0000000000101011 ,
b0000000000101011 >
1?
#856
b0000000000101101 @
b0000000000101101 6
07
0:
0?
#861
b0000000000101101 5
17
b0000000000101101 )
1:
b0000000000101100 +
b0000000000101101 ;
b0000000000101100 ,
b0000000000101100 >
1?
#866
b0000000000101110 @
b0000000000101110 6
07
0:
0?
#871
b0000000000101110 5
17
b0000000000101110 )
1:
b0000000000101101 +
b0000000000101110 ;
b0000000000101101 ,
b0000000000101101 >
1?
#876
b0000000000101111 @
b0000000000101111 6
07
0:
0?
#881
b0000000000101111 5
17
b0000000000101111 )
1:
b0000000000101110 +
b0000000000101111 ;
b0000000000101110 ,
b0000000000101110 >
1?
#886
b0000000000110000 @
b0000000000110000 6
07
0:
0?
#891
b0000000000110000 5
17
b0000000000110000 )
1:
b0000000000101111 +
b0000000000110000 ;
b0000000000101111 ,
b0000000000101111 >
1?
#896
b0000000000110001 @
b0000000000110001 6
07
0:
0?
#901
b0000000000110001 5
17
b0000000000110001 )
1:
b0000000000110000 +
b0000000000110001 ;
b0000000000110000 ,
b0000000000110000 >
1?
#906
b0000000000110010 @
b0000000000110010 6
07
0:
0?
#911
b0000000000110010 5
17
b0000000000110010 )
1:
b0000000000110001 +
b0000000000110010 ;
b0000000000110001 ,
b0000000000110001 >
1?
#916
b0000000000110011 @
b0000000000110011 6
07
0:
0?
#921
b0000000000110011 5
17
b0000000000110011 )
1:
b0000000000110010 +
b0000000000110011 ;
b0000000000110010 ,
b0000000000110010 >
1?
#926
b0000000000110100 @
b0000000000110100 6
07
0:
0?
#931
b0000000000110100 5
17
b0000000000110100 )
1:
b0000000000110011 +
b0000000000110100 ;
b0000000000110011 ,
b0000000000110011 >
1?
#936
b0000000000110101 @
b0000000000110101 6
07
0:
0?
#941
b0000000000110101 5
17
b0000000000110101 )
1:
b0000000000110100 +
b0000000000110101 ;
b0000000000110100 ,
b0000000000110100 >
1?
#946
b0000000000110110 @
b0000000000110110 6
07
0:
0?
#951
b0000000000110110 5
17
b0000000000110110 )
1:
b0000000000110101 +
b0000000000110110 ;
b0000000000110101 ,
b0000000000110101 >
1?
#956
b0000000000110111 @
b0000000000110111 6
07
0:
0?
#961
b0000000000110111 5
17
b0000000000110111 )
1:
b0000000000110110 +
b0000000000110111 ;
b0000000000110110 ,
b0000000000110110 >
1?
#966
b0000000000111000 @
b0000000000111000 6
07
0:
0?
#971
b0000000000111000 5
17
b0000000000111000 )
1:
b0000000000110111 +
b0000000000111000 ;
b0000000000110111 ,
b0000000000110111 >
1?
#976
b0000000000111001 @
b0000000000111001 6
07
0:
0?
#981
b0000000000111001 5
17
b0000000000111001 )
1:
b0000000000111000 +
b0000000000111001 ;
b0000000000111000 ,
b0000000000111000 >
1?
#986
b0000000000111010 @
b0000000000111010 6
07
0:
0?
#991
b0000000000111010 5
17
b0000000000111010 )
1:
b0000000000111001 +
b0000000000111010 ;
b0000000000111001 ,
b0000000000111001 >
1?
#996
b0000000000111011 @
b0000000000111011 6
07
0:
0?
#1001
b0000000000111011 5
17
b0000000000111011 )
1:
b0000000000111010 +
b0000000000111011 ;
b0000000000111010 ,
b0000000000111010 >
1?
#1006
b0000000000111100 @
b0000000000111100 6
07
0:
0?
#1011
b0000000000111100 5
17
b0000000000111100 )
1:
b0000000000111011 +
b0000000000111100 ;
b0000000000111011 ,
b0000000000111011 >
1?
#1016
b0000000000111101 @
b0000000000111101 6
07
0:
0?
#1021
b0000000000111101 5
17
b0000000000111101 )
1:
b0000000000111100 +
b0000000000111101 ;
b0000000000111100 ,
b0000000000111100 >
1?
#1026
b0000000000111110 @
b0000000000111110 6
07
0:
0?
#1031
b0000000000111110 5
17
b0000000000111110 )
1:
b0000000000111101 +
b0000000000111110 ;
b0000000000111101 ,
b0000000000111101 >
1?
#1036
b0000000000111111 @
b0000000000111111 6
07
0:
0?
#1041
b0000000000111111 5
17
b0000000000111111 )
1:
b0000000000111110 +
b0000000000111111 ;
b0000000000111110 ,
b0000000000111110 >
1?
#1046
b0000000001000000 @
b0000000001000000 6
07
0:
0?
#1051
b0000000001000000 5
17
b0000000001000000 )
1:
b0000000000111111 +
b0000000001000000 ;
b0000000000111111 ,
b0000000000111111 >
1?
#1056
b0000000001000001 @
b0000000001000001 6
07
0:
0?
#1061
b0000000001000001 5
17
b0000000001000001 )
1:
b0000000001000000 +
b0000000001000001 ;
b0000000001000000 ,
b0000000001000000 >
1?
#1066
b0000000001000010 @
b0000000001000010 6
07
0:
0?
#1071
b0000000001000010 5
17
b0000000001000010 )
1:
b0000000001000001 +
b0000000001000010 ;
b0000000001000001 ,
b0000000001000001 >
1?
#1076
b0000000001000011 @
b0000000001000011 6
07
0:
0?
#1081
b0000000001000011 5
17
b0000000001000011 )
1:
b0000000001000010 +
b0000000001000011 ;
b0000000001000010 ,
b0000000001000010 >
1?
#1086
b0000000001000100 @
b0000000001000100 6
07
0:
0?
#1091
b0000000001000100 5
17
b0000000001000100 )
1:
b0000000001000011 +
b0000000001000100 ;
b0000000001000011 ,
b0000000001000011 >
1?
#1096
b0000000001000101 @
b0000000001000101 6
07
0:
0?
#1101
b0000000001000101 5
17
b0000000001000101 )
1:
b0000000001000100 +
b0000000001000101 ;
b0000000001000100 ,
b0000000001000100 >
1?
#1106
b0000000001000110 @
b0000000001000110 6
07
0:
0?
#1111
b0000000001000110 5
17
b0000000001000110 )
1:
b0000000001000101 +
b0000000001000110 ;
b0000000001000101 ,
b0000000001000101 >
1?
#1116
b0000000001000111 @
b0000000001000111 6
07
0:
0?
#1121
b0000000001000111 5
17
b0000000001000111 )
1:
b0000000001000110 +
b0000000001000111 ;
b0000000001000110 ,
b0000000001000110 >
1?
#1126
b0000000001001000 @
b0000000001001000 6
07
0:
0?
#1131
b0000000001001000 5
17
b0000000001001000 )
1:
b0000000001000111 +
b0000000001001000 ;
b0000000001000111 ,
b0000000001000111 >
1?
#1136
b0000000001001001 @
b0000000001001001 6
07
0:
0?
#1141
b0000000001001001 5
17
b0000000001001001 )
1:
b0000000001001000 +
b0000000001001001 ;
b0000000001001000 ,
b0000000001001000 >
1?
#1146
b0000000001001010 @
b0000000001001010 6
07
0:
0?
#1151
b0000000001001010 5
17
b0000000001001010 )
1:
b0000000001001001 +
b0000000001001010 ;
b0000000001001001 ,
b0000000001001001 >
1?
#1156
b0000000001001011 @
b0000000001001011 6
07
0:
0?
#1161
b0000000001001011 5
17
b0000000001001011 )
1:
b0000000001001010 +
b0000000001001011 ;
b0000000001001010 ,
b0000000001001010 >
1?
#1166
b0000000001001100 @
b0000000001001100 6
07
0:
0?
#1171
b0000000001001100 5
17
b0000000001001100 )
1:
b0000000001001011 +
b0000000001001100 ;
b0000000001001011 ,
b0000000001001011 >
1?
#1176
b0000000001001101 @
b0000000001001101 6
07
0:
0?
#1181
b0000000001001101 5
17
b0000000001001101 )
1:
b0000000001001100 +
b0000000001001101 ;
b0000000001001100 ,
b0000000001001100 >
1?
#1186
b0000000001001110 @
b0000000001001110 6
07
0:
0?
#1191
b0000000001001110 5
17
b0000000001001110 )
1:
b0000000001001101 +
b0000000001001110 ;
b0000000001001101 ,
b0000000001001101 >
1?
#1196
b0000000001001111 @
b0000000001001111 6
07
0:
0?
#1201
b0000000001001111 5
17
b0000000001001111 )
1:
b0000000001001110 +
b0000000001001111 ;
b0000000001001110 ,
b0000000001001110 >
1?
#1206
b0000000001010000 @
b0000000001010000 6
07
0:
0?
#1211
b0000000001010000 5
17
b0000000001010000 )
1:
b0000000001001111 +
b0000000001010000 ;
b0000000001001111 ,
b0000000001001111 >
1?
#1216
b0000000001010001 @
b0000000001010001 6
07
0:
0?
#1221
b0000000001010001 5
17
b0000000001010001 )
1:
b0000000001010000 +
b0000000001010001 ;
b0000000001010000 ,
b0000000001010000 >
1?
#1226
b0000000001010010 @
b0000000001010010 6
07
0:
0?
#1231
b0000000001010010 5
17
b0000000001010010 )
1:
b0000000001010001 +
b0000000001010010 ;
b0000000001010001 ,
b0000000001010001 >
1?
#1236
b0000000001010011 @
b0000000001010011 6
07
0:
0?
#1241
b0000000001010011 5
17
b0000000001010011 )
1:
b0000000001010010 +
b0000000001010011 ;
b0000000001010010 ,
b0000000001010010 >
1?
#1246
b0000000001010100 @
b0000000001010100 6
07
0:
0?
#1251
b0000000001010100 5
17
b0000000001010100 )
1:
b0000000001010011 +
b0000000001010100 ;
b0000000001010011 ,
b0000000001010011 >
1?
#1256
b0000000001010101 @
b0000000001010101 6
07
0:
0?
#1261
b0000000001010101 5
17
b0000000001010101 )
1:
b0000000001010100 +
b0000000001010101 ;
b0000000001010100 ,
b0000000001010100 >
1?
#1266
b0000000001010110 @
b0000000001010110 6
07
0:
0?
#1271
b0000000001010110 5
17
b0000000001010110 )
1:
b0000000001010101 +
b0000000001010110 ;
b0000000001010101 ,
b0000000001010101 >
1?
#1276
b0000000001010111 @
b0000000001010111 6
07
0:
0?
#1281
b0000000001010111 5
17
b0000000001010111 )
1:
b0000000001010110 +
b0000000001010111 ;
b0000000001010110 ,
b0000000001010110 >
1?
#1286
b0000000001011000 @
b0000000001011000 6
07
0:
0?
#1291
b0000000001011000 5
17
b0000000001011000 )
1:
b0000000001010111 +
b0000000001011000 ;
b0000000001010111 ,
b0000000001010111 >
1?
#1296
b0000000001011001 @
b0000000001011001 6
07
0:
0?
#1301
b0000000001011001 5
17
b0000000001011001 )
1:
b0000000001011000 +
b0000000001011001 ;
b0000000001011000 ,
b0000000001011000 >
1?
#1306
b0000000001011010 @
b0000000001011010 6
07
0:
0?
#1311
b0000000001011010 5
17
b0000000001011010 )
1:
b0000000001011001 +
b0000000001011010 ;
b0000000001011001 ,
b0000000001011001 >
1?
#1316
b0000000001011011 @
b0000000001011011 6
07
0:
0?
#1321
b0000000001011011 5
17
b0000000001011011 )
1:
b0000000001011010 +
b0000000001011011 ;
b0000000001011010 ,
b0000000001011010 >
1?
#1326
b0000000001011100 @
b0000000001011100 6
07
0:
0?
#1331
b0000000001011100 5
17
b0000000001011100 )
1:
b0000000001011011 +
b0000000001011100 ;
b0000000001011011 ,
b0000000001011011 >
1?
#1336
b0000000001011101 @
b0000000001011101 6
07
0:
0?
#1341
b0000000001011101 5
17
b0000000001011101 )
1:
b0000000001011100 +
b0000000001011101 ;
b0000000001011100 ,
b0000000001011100 >
1?
#1346
b0000000001011110 @
b0000000001011110 6
07
0:
0?
#1351
b0000000001011110 5
17
b0000000001011110 )
1:
b0000000001011101 +
b0000000001011110 ;
b0000000001011101 ,
b0000000001011101 >
1?
#1356
b0000000001011111 @
b0000000001011111 6
07
0:
0?
#1361
b0000000001011111 5
17
b0000000001011111 )
1:
b0000000001011110 +
b0000000001011111 ;
b0000000001011110 ,
b0000000001011110 >
1?
#1366
b0000000001100000 @
b0000000001100000 6
07
0:
0?
#1371
b0000000001100000 5
17
b0000000001100000 )
1:
b0000000001011111 +
b0000000001100000 ;
b0000000001011111 ,
b0000000001011111 >
1?
#1376
b0000000001100001 @
b0000000001100001 6
07
0:
0?
#1381
b0000000001100001 5
17
b0000000001100001 )
1:
b0000000001100000 +
b0000000001100001 ;
b0000000001100000 ,
b0000000001100000 >
1?
#1386
b0000000001100010 @
b0000000001100010 6
07
0:
0?
#1391
b0000000001100010 5
17
b0000000001100010 )
1:
b0000000001100001 +
b0000000001100010 ;
b0000000001100001 ,
b0000000001100001 >
1?
#1396
b0000000001100011 @
b0000000001100011 6
07
0:
0?
#1401
b0000000001100011 5
17
b0000000001100011 )
1:
b0000000001100010 +
b0000000001100011 ;
b0000000001100010 ,
b0000000001100010 >
1?
#1406
b0000000000000000 @
07
0=
0/
