test_run_dir/Bubble_FIFO_should_pass/BubbleFifo.vcd
$date
2026-01-09T09:38+0000
$end
$version
0.2
$end
$comment

$end
$timescale 1ns  $end
$scope module BubbleFifo $end
 $var wire 1 " FifoRegister_1 $end
 $var wire 1 # FifoRegister_3 $end
 $var wire 1 $ FifoRegister_2 $end
 $var wire 8 + io_deq_dout $end
 $var wire 1 4 reset $end
 $var wire 1 7 io_deq_read $end
 $var wire 1 ? io_enq_write $end
 $var wire 1 A io_enq_full $end
 $var wire 1 J FifoRegister $end
 $var wire 1 K clock $end
 $var wire 8 O io_enq_din $end
 $var wire 1 R io_deq_empty $end
  $scope module FifoRegister_1 $end
   $var wire 1 * io_enq_full $end
   $var wire 1 . io_deq_read $end
   $var wire 1 6 io_enq_write $end
   $var wire 1 : clock $end
   $var wire 1 > reset $end
   $var wire 1 F stateReg $end
   $var wire 8 G io_enq_din $end
   $var wire 1 H io_deq_empty $end
   $var wire 8 N io_deq_dout $end
   $var wire 8 T dataReg $end
  $upscope $end
  $scope module FifoRegister_3 $end
   $var wire 1 ' io_deq_empty $end
   $var wire 1 ) io_enq_full $end
   $var wire 1 0 io_deq_read $end
   $var wire 8 2 io_enq_din $end
   $var wire 1 3 reset $end
   $var wire 1 5 stateReg $end
   $var wire 1 8 io_enq_write $end
   $var wire 8 = dataReg $end
   $var wire 1 I clock $end
   $var wire 8 P io_deq_dout $end
  $upscope $end
  $scope module FifoRegister_2 $end
   $var wire 1 ( io_enq_full $end
   $var wire 8 , dataReg $end
   $var wire 1 - io_deq_read $end
   $var wire 8 / io_enq_din $end
   $var wire 1 ; io_deq_empty $end
   $var wire 1 C clock $end
   $var wire 1 D io_enq_write $end
   $var wire 1 E reset $end
   $var wire 1 M stateReg $end
   $var wire 8 Q io_deq_dout $end
  $upscope $end
  $scope module FifoRegister $end
   $var wire 1 ! io_deq_read $end
   $var wire 1 % io_deq_empty $end
   $var wire 1 & stateReg $end
   $var wire 8 1 io_enq_din $end
   $var wire 1 9 io_enq_full $end
   $var wire 1 < clock $end
   $var wire 1 @ io_enq_write $end
   $var wire 1 B reset $end
   $var wire 8 L dataReg $end
   $var wire 8 S io_deq_dout $end
  $upscope $end
$upscope $end
$enddefinitions $end
$dumpvars
00
03
04
05
06
07
08
09
0:
0;
0<
0>
0?
0@
0A
0B
0C
0D
0E
0F
0H
0I
0J
0K
0M
0R
b00000000 L
b00000000 G
b00000000 S
b00000000 T
b00000000 O
b00000000 N
b00000000 Q
b00000000 P
b00000000 +
b00000000 ,
b00000000 =
b00000000 2
b00000000 /
b00000000 1
0!
0"
0#
0$
0%
0&
0'
0(
0)
0*
0-
0.
$end
#0
1!
1B
1%
1E
1'
1H
1-
1.
1R
13
14
1;
1>
#1
1C
1I
1:
1K
1<
#6
0B
0C
0E
0I
0K
b10101011 O
b10101011 1
03
04
0:
0<
0>
#11
1C
1I
1:
1K
1<
#16
1@
b00010010 1
0C
0I
0:
0K
0<
1?
b00010010 O
#21
1A
1C
0%
1&
b00010010 G
1I
1K
b00010010 L
b00010010 S
16
19
1:
1<
#26
0@
b11111111 1
0C
0I
0:
0K
0<
0?
b11111111 O
#31
0!
0A
1C
1D
1%
0&
1F
b00000000 G
0H
1I
1*
1K
b00000000 L
b00010010 N
b00010010 /
b00000000 S
b00010010 T
06
09
1:
1<
#36
0C
0I
0:
0K
0<
#41
1!
1C
0D
0F
1(
1H
1I
0*
1K
b00010010 ,
1M
0.
b00000000 N
b00000000 /
b00010010 Q
b00010010 2
b00000000 T
18
1:
0;
1<
#46
1@
b10000000 1
0C
0I
0:
0K
0<
1?
b10000000 O
#51
1A
1C
b10000000 G
1I
1K
b10000000 L
0M
b00010010 P
b00000000 Q
0R
b10000000 S
0%
1&
0'
0(
1)
b00010010 +
b00000000 ,
0-
1.
b00000000 2
15
16
08
19
1:
1;
1<
b00010010 =
#56
0@
b10000001 1
0C
0I
0:
0K
0<
0?
b10000001 O
#61
0!
0A
1C
1D
1%
0&
1F
b00000000 G
0H
1I
1*
1K
b00000000 L
b10000000 N
b10000000 /
b00000000 S
b10000000 T
06
09
1:
1<
#66
1@
b10000010 1
0C
0I
0:
0K
0<
1?
b10000010 O
#71
1A
1C
0D
0F
b10000010 G
1H
1I
1K
b10000010 L
1M
b00000000 N
b10000000 Q
b10000010 S
b00000000 T
1!
0%
1&
1(
0*
b10000000 ,
0.
b00000000 /
b10000000 2
16
18
19
1:
0;
1<
#76
0@
b10000011 1
0C
0I
0:
0K
0<
0?
b10000011 O
#81
0!
0A
1C
1D
1%
0&
1F
b00000000 G
0H
1I
1*
1K
b00000000 L
b10000010 N
b10000010 /
b00000000 S
b10000010 T
06
09
1:
1<
#86
1@
b10000100 1
0C
0I
0:
0K
0<
1?
b10000100 O
#91
1A
1C
0%
1&
b10000100 G
1I
1K
b10000100 L
b10000100 S
16
19
1:
1<
#96
0@
b10000101 1
0C
0I
0:
0K
0<
0?
b10000101 O
#101
1C
1I
1:
1K
1<
#106
b10000110 1
0C
0I
0:
0K
0<
b10000110 O
#111
1C
1I
1:
1K
1<
#116
10
0C
17
0I
0:
0K
0<
#121
1C
1'
0)
1I
b00000000 +
1K
1-
b00000000 P
1R
05
1:
1<
b00000000 =
#126
00
0C
07
0I
0:
0K
0<
#131
1C
0'
0(
1)
1I
b10000000 +
1K
b00000000 ,
0-
0M
1.
b10000000 P
b00000000 Q
b00000000 2
0R
15
08
1:
1;
1<
b10000000 =
#136
0C
0I
0:
0K
0<
#141
1!
1C
0D
0F
1(
1H
1I
0*
1K
b10000010 ,
1M
0.
b00000000 N
b00000000 /
b10000010 Q
b10000010 2
b00000000 T
18
1:
0;
1<
#146
0C
0I
0:
0K
0<
#151
0!
0A
1C
1D
1%
0&
1F
b00000000 G
0H
1I
1*
1K
b00000000 L
b10000100 N
b10000100 /
b00000000 S
b10000100 T
06
09
1:
1<
#156
0C
0I
0:
0K
0<
#161
1C
1I
1:
1K
1<
#166
0C
0I
0:
0K
0<
#171
1C
1I
1:
1K
1<
#176
0C
0I
0:
0K
0<
#181
1C
1I
1:
1K
1<
#186
10
0C
17
0I
0:
0K
0<
#191
1C
1'
0)
1I
b00000000 +
1K
1-
b00000000 P
1R
05
1:
1<
b00000000 =
#196
00
0C
07
0I
0:
0K
0<
#201
1C
0'
0(
1)
1I
b10000010 +
1K
b00000000 ,
0-
0M
1.
b10000010 P
b00000000 Q
b00000000 2
0R
15
08
1:
1;
1<
b10000010 =
#206
10
0C
17
0I
0:
0K
0<
#211
1C
0D
0F
1H
1I
1K
1M
b00000000 N
b00000000 P
b10000100 Q
1R
b00000000 T
1!
1'
1(
0)
0*
b00000000 +
b10000100 ,
1-
0.
b00000000 /
b10000100 2
05
18
1:
0;
1<
b00000000 =
#216
00
0C
07
0I
0:
0K
0<
#221
1C
0'
0(
1)
1I
b10000100 +
1K
b00000000 ,
0-
0M
1.
b10000100 P
b00000000 Q
b00000000 2
0R
15
08
1:
1;
1<
b10000100 =
#226
10
0C
17
0I
0:
0K
0<
#231
1C
1'
0)
1I
b00000000 +
1K
1-
b00000000 P
1R
05
1:
1<
b00000000 =
#236
00
0C
07
0I
0:
0K
0<
#241
1C
1I
1:
1K
1<
#246
0C
0I
0:
0K
0<
#251
1C
1I
1:
1K
1<
#256
1@
b00000001 1
0C
0I
0:
0K
0<
1?
b00000001 O
#261
1A
1C
0%
1&
b00000001 G
1I
1K
b00000001 L
b00000001 S
16
19
1:
1<
#266
0@
b00000010 1
0C
0I
0:
0K
0<
0?
b00000010 O
#271
0!
0A
1C
1D
1%
0&
1F
b00000000 G
0H
1I
1*
1K
b00000000 L
b00000001 N
b00000001 /
b00000000 S
b00000001 T
06
09
1:
1<
#276
1@
b00000011 1
0C
0I
0:
0K
0<
1?
b00000011 O
#281
1A
1C
0D
0F
b00000011 G
1H
1I
1K
b00000011 L
1M
b00000000 N
b00000001 Q
b00000011 S
b00000000 T
1!
0%
1&
1(
0*
b00000001 ,
0.
b00000000 /
b00000001 2
16
18
19
1:
0;
1<
#286
0@
b00000100 1
0C
0I
0:
0K
0<
0?
b00000100 O
#291
0A
1C
1D
1F
b00000000 G
0H
1I
1K
b00000000 L
0M
b00000011 N
b00000001 P
b00000000 Q
0R
b00000000 S
b00000011 T
0!
1%
0&
0'
0(
1)
1*
b00000001 +
b00000000 ,
0-
1.
b00000011 /
b00000000 2
15
06
08
09
1:
1;
1<
b00000001 =
#296
10
1@
b00000101 1
0C
17
0I
0:
0K
0<
1?
b00000101 O
#301
1A
1C
0D
0F
b00000101 G
1H
1I
1K
b00000101 L
1M
b00000000 N
b00000000 P
b00000011 Q
1R
b00000101 S
b00000000 T
1!
0%
1&
1'
1(
0)
0*
b00000000 +
b00000011 ,
1-
0.
b00000000 /
b00000011 2
05
16
18
19
1:
0;
1<
b00000000 =
#306
00
0@
b00000110 1
0C
07
0I
0:
0K
0<
0?
b00000110 O
#311
0A
1C
1D
1F
b00000000 G
0H
1I
1K
b00000000 L
0M
b00000101 N
b00000011 P
b00000000 Q
0R
b00000000 S
b00000101 T
0!
1%
0&
0'
0(
1)
1*
b00000011 +
b00000000 ,
0-
1.
b00000101 /
b00000000 2
15
06
08
09
1:
1;
1<
b00000011 =
#316
10
1@
b00000111 1
0C
17
0I
0:
0K
0<
1?
b00000111 O
#321
1A
1C
0D
0F
b00000111 G
1H
1I
1K
b00000111 L
1M
b00000000 N
b00000000 P
b00000101 Q
1R
b00000111 S
b00000000 T
1!
0%
1&
1'
1(
0)
0*
b00000000 +
b00000101 ,
1-
0.
b00000000 /
b00000101 2
05
16
18
19
1:
0;
1<
b00000000 =
#326
00
0@
b00001000 1
0C
07
0I
0:
0K
0<
0?
b00001000 O
#331
0A
1C
1D
1F
b00000000 G
0H
1I
1K
b00000000 L
0M
b00000111 N
b00000101 P
b00000000 Q
0R
b00000000 S
b00000111 T
0!
1%
0&
0'
0(
1)
1*
b00000101 +
b00000000 ,
0-
1.
b00000111 /
b00000000 2
15
06
08
09
1:
1;
1<
b00000101 =
#336
10
1@
b00001001 1
0C
17
0I
0:
0K
0<
1?
b00001001 O
#341
1A
1C
0D
0F
b00001001 G
1H
1I
1K
b00001001 L
1M
b00000000 N
b00000000 P
b00000111 Q
1R
b00001001 S
b00000000 T
1!
0%
1&
1'
1(
0)
0*
b00000000 +
b00000111 ,
1-
0.
b00000000 /
b00000111 2
05
16
18
19
1:
0;
1<
b00000000 =
#346
00
0@
b00001010 1
0C
07
0I
0:
0K
0<
0?
b00001010 O
#351
0A
1C
1D
1F
b00000000 G
0H
1I
1K
b00000000 L
0M
b00001001 N
b00000111 P
b00000000 Q
0R
b00000000 S
b00001001 T
0!
1%
0&
0'
0(
1)
1*
b00000111 +
b00000000 ,
0-
1.
b00001001 /
b00000000 2
15
06
08
09
1:
1;
1<
b00000111 =
#356
10
1@
b00001011 1
0C
17
0I
0:
0K
0<
1?
b00001011 O
#361
1A
1C
0D
0F
b00001011 G
1H
1I
1K
b00001011 L
1M
b00000000 N
b00000000 P
b00001001 Q
1R
b00001011 S
b00000000 T
1!
0%
1&
1'
1(
0)
0*
b00000000 +
b00001001 ,
1-
0.
b00000000 /
b00001001 2
05
16
18
19
1:
0;
1<
b00000000 =
#366
00
0@
b00001100 1
0C
07
0I
0:
0K
0<
0?
b00001100 O
#371
0A
1C
1D
1F
b00000000 G
0H
1I
1K
b00000000 L
0M
b00001011 N
b00001001 P
b00000000 Q
0R
b00000000 S
b00001011 T
0!
1%
0&
0'
0(
1)
1*
b00001001 +
b00000000 ,
0-
1.
b00001011 /
b00000000 2
15
06
08
09
1:
1;
1<
b00001001 =
#376
10
1@
b00001101 1
0C
17
0I
0:
0K
0<
1?
b00001101 O
#381
1A
1C
0D
0F
b00001101 G
1H
1I
1K
b00001101 L
1M
b00000000 N
b00000000 P
b00001011 Q
1R
b00001101 S
b00000000 T
1!
0%
1&
1'
1(
0)
0*
b00000000 +
b00001011 ,
1-
0.
b00000000 /
b00001011 2
05
16
18
19
1:
0;
1<
b00000000 =
#386
00
0@
b00001110 1
0C
07
0I
0:
0K
0<
0?
b00001110 O
#391
0A
1C
1D
1F
b00000000 G
0H
1I
1K
b00000000 L
0M
b00001101 N
b00001011 P
b00000000 Q
0R
b00000000 S
b00001101 T
0!
1%
0&
0'
0(
1)
1*
b00001011 +
b00000000 ,
0-
1.
b00001101 /
b00000000 2
15
06
08
09
1:
1;
1<
b00001011 =
#396
10
1@
b00001111 1
0C
17
0I
0:
0K
0<
1?
b00001111 O
#401
1A
1C
0D
0F
b00001111 G
1H
1I
1K
b00001111 L
1M
b00000000 N
b00000000 P
b00001101 Q
1R
b00001111 S
b00000000 T
1!
0%
1&
1'
1(
0)
0*
b00000000 +
b00001101 ,
1-
0.
b00000000 /
b00001101 2
05
16
18
19
1:
0;
1<
b00000000 =
#406
07
0K
0?
b00000000 O
